[
  {
    "normalForm": "hadu",
    "id": 463
  },
  {
    "normalForm": "haeru",
    "id": 464
  },
  {
    "normalForm": "hafota",
    "id": 465
  },
  {
    "normalForm": "hawlio",
    "id": 466
  },
  {
    "normalForm": "heboca",
    "id": 467
  },
  {
    "normalForm": "hedfan",
    "id": 468
  },
  {
    "normalForm": "hel",
    "id": 469
  },
  {
    "normalForm": "helpu",
    "id": 470
  },
  {
    "normalForm": "hendrefa",
    "id": 471
  },
  {
    "normalForm": "herwhela",
    "id": 472
  },
  {
    "normalForm": "hidlo",
    "id": 473
  },
  {
    "normalForm": "hoelio",
    "id": 474
  },
  {
    "normalForm": "hofran",
    "id": 475
  },
  {
    "normalForm": "hoffi",
    "id": 10,
    "translations": [ "to like" ],
    "related": [
      9, 494
    ]
  },
  {
    "normalForm": "holi",
    "id": 476
  },
  {
    "normalForm": "hollti",
    "id": 477
  },
  {
    "normalForm": "honni",
    "id": 478
  },
  {
    "normalForm": "hudo",
    "id": 479
  },
  {
    "normalForm": "hunanynysu",
    "id": 480
  },
  {
    "normalForm": "huno",
    "id": 481
  },
  {
    "normalForm": "hwpo",
    "id": 482
  },
  {
    "normalForm": "hwylio",
    "id": 483
  },
  {
    "normalForm": "hybu",
    "id": 484
  },
  {
    "normalForm": "hyfforddi",
    "id": 485
  },
  {
    "normalForm": "hyrwyddo",
    "id": 486
  },
  {
    "normalForm": "helaethu",
    "id": 792,
    "translations": [ "to enlarge" ]
  },
  {
    "normalForm": "hala",
    "id": 796
  },
  {
    "normalForm": "hongian",
    "id": 830,
    "translations": [ "to hang" ]
  },
  {
    "normalForm": "hanu",
    "stem": "hanu",
    "id": 864,
    "translations": [ "to originate" ]
  },
  {
    "normalForm": "hacio",
    "id": 887,
    "translations": [ "to hack" ]
  },
  {
    "normalForm": "hwtio",
    "id": 891,
    "translations": [ "to hoot" ]
  },
  {
    "normalForm": "hwsmona",
    "id": 939,
    "translations": [ "to cultivate" ]
  },
  {
    "normalForm": "holwyddori",
    "id": 968,
    "translations": [ "to catechise" ]
  },
  {
    "normalForm": "heintio",
    "id": 997,
    "translations": [ "to contaminate" ]
  },
  {
    "normalForm": "hysian",
    "id": 1011,
    "translations": [ "to set on" ]
  },
  {
    "normalForm": "halian",
    "id": 1022,
    "translations": [ "to haul" ]
  },
  {
    "normalForm": "hitio",
    "id": 1049,
    "translations": [ "to hit" ]
  },
  {
    "normalForm": "hwrjio",
    "id": 1123,
    "translations": [ "to urge" ]
  },
  {
    "normalForm": "haeddu",
    "id": 1156,
    "translations": [ "to deserve" ]
  },
  {
    "normalForm": "halio",
    "id": 1161,
    "translations": [ "to haul" ]
  },
  {
    "normalForm": "hunanddewis",
    "id": 1176,
    "translations": [ "to self-select" ]
  },
  {
    "normalForm": "hyderu",
    "id": 1177,
    "translations": [ "to be confident" ]
  },
  {
    "normalForm": "heglu",
    "id": 1269,
    "translations": [ "to flee" ]
  },
  {
    "normalForm": "hysbysebu",
    "id": 1299,
    "translations": [ "to advertise" ]
  },
  {
    "normalForm": "hambygio",
    "id": 1311,
    "translations": [ "to tease" ]
  },
  {
    "normalForm": "hinoni",
    "id": 1382,
    "translations": [ "to become fine" ]
  },
  {
    "normalForm": "honcio",
    "id": 1389,
    "translations": [ "to totter" ]
  },
  {
    "normalForm": "hapfasnachu",
    "id": 1474,
    "translations": [ "to speculate" ]
  },
  {
    "normalForm": "haneru",
    "id": 1491,
    "translations": [ "to halve" ]
  },
  {
    "normalForm": "harneisio",
    "id": 1526,
    "translations": [ "to harness" ]
  },
  {
    "normalForm": "heigio",
    "id": 1591,
    "translations": [ "to swarm" ]
  },
  {
    "normalForm": "hunangyfeirio",
    "id": 1604,
    "translations": [ "to self-regard" ]
  },
  {
    "normalForm": "hopian",
    "id": 1621,
    "translations": [ "to dance" ]
  },
  {
    "normalForm": "hwtian",
    "id": 1642,
    "translations": [ "to hoot" ]
  },
  {
    "normalForm": "hapchwarae",
    "id": 1644,
    "translations": [ "to gamble" ]
  },
  {
    "normalForm": "hefru",
    "id": 1657,
    "translations": [ "to talk rubbish" ]
  },
  {
    "normalForm": "hymian",
    "id": 1678,
    "translations": [ "to hum" ]
  },
  {
    "normalForm": "helpio",
    "id": 1685,
    "translations": [ "to help" ]
  },
  {
    "normalForm": "hunanasesu",
    "id": 1756,
    "translations": [ "to self-assess" ]
  },
  {
    "normalForm": "hercian",
    "id": 1791,
    "translations": [ "to limp" ]
  },
  {
    "normalForm": "hamddena",
    "id": 1812,
    "translations": [ "to take it easy" ]
  },
  {
    "normalForm": "hebrwng",
    "id": 1822,
    "translations": [ "to escort" ]
  },
  {
    "normalForm": "hofio",
    "id": 1828,
    "translations": [ "to hoe" ]
  },
  {
    "normalForm": "hwmian",
    "id": 1836,
    "translations": [ "to hum" ]
  },
  {
    "normalForm": "haenu",
    "id": 1873,
    "translations": [ "to layer" ]
  },
  {
    "normalForm": "haelu",
    "id": 1902,
    "translations": [ "to act generously" ]
  },
  {
    "normalForm": "hafalu",
    "id": 1911,
    "translations": [ "to equate" ]
  },
  {
    "normalForm": "hunangychwyn",
    "id": 1950,
    "translations": [ "to autostart" ]
  },
  {
    "normalForm": "hurtio",
    "id": 1962,
    "translations": [ "to become confused" ]
  },
  {
    "normalForm": "harddu",
    "id": 1996,
    "translations": [ "to beautify" ]
  },
  {
    "normalForm": "hencian",
    "id": 1998,
    "translations": [ "to limp" ]
  },
  {
    "normalForm": "hyfrydu",
    "id": 2011,
    "translations": [ "to delight" ]
  },
  {
    "normalForm": "hunanweithredu",
    "id": 2038,
    "translations": [ "to self-activate" ]
  },
  {
    "normalForm": "hwyrhau",
    "stem": "hwyrhe",
    "id": 2059,
    "translations": [ "to get late" ]
  },
  {
    "normalForm": "hyrddu",
    "id": 2099,
    "translations": [ "to ram" ]
  },
  {
    "normalForm": "herio",
    "id": 2163,
    "translations": [ "to challenge" ]
  },
  {
    "normalForm": "hendrefu",
    "id": 2219,
    "translations": [ "to dwell" ]
  },
  {
    "normalForm": "heddychu",
    "id": 2263,
    "translations": [ "to pacify" ]
  },
  {
    "normalForm": "huro",
    "id": 2301,
    "translations": [ "to hire" ]
  },
  {
    "normalForm": "heglio",
    "id": 2334,
    "translations": [ "to run away" ]
  },
  {
    "normalForm": "hinsoddi",
    "id": 2336,
    "translations": [ "to acclimatise" ]
  },
  {
    "normalForm": "hicio",
    "id": 2494,
    "translations": [ "to slit" ]
  },
  {
    "normalForm": "hidio",
    "id": 2521,
    "translations": [ "to heed" ]
  },
  {
    "normalForm": "hirbarhau",
    "stem": "hirbarhe",
    "id": 2528,
    "translations": [ "to endure" ]
  },
  {
    "normalForm": "hangio",
    "id": 2537,
    "translations": [ "to hang" ]
  },
  {
    "normalForm": "hocedu",
    "id": 2552,
    "translations": [ "to cheat" ]
  },
  {
    "normalForm": "honio",
    "id": 2557,
    "translations": [ "to hone" ]
  },
  {
    "normalForm": "hufennu",
    "id": 2562,
    "translations": [ "to cream" ]
  },
  {
    "normalForm": "herfeiddio",
    "id": 2566,
    "translations": [ "to defy" ]
  },
  {
    "normalForm": "hedo",
    "id": 2579,
    "translations": [ "to fly" ]
  },
  {
    "normalForm": "hercio",
    "id": 2599,
    "translations": [ "to hobble" ]
  },
  {
    "normalForm": "hunanholi",
    "id": 2620,
    "translations": [ "to self-examine" ]
  },
  {
    "normalForm": "honcian",
    "id": 2634,
    "translations": [ "to stagger" ]
  },
  {
    "normalForm": "hela",
    "id": 2644,
    "translations": [ "to hunt" ]
  },
  {
    "normalForm": "hapgyrchu",
    "id": 2670,
    "translations": [ "to random access" ]
  },
  {
    "normalForm": "hualu",
    "id": 2824,
    "translations": [ "to fetter" ]
  },
  {
    "normalForm": "hagru",
    "id": 2841,
    "translations": [ "to disfigure" ]
  },
  {
    "normalForm": "hurio",
    "id": 2873,
    "translations": [ "to hire" ]
  },
  {
    "normalForm": "hymynnu",
    "id": 2879,
    "translations": [ "to rivet" ]
  },
  {
    "normalForm": "hobelu",
    "id": 2906,
    "translations": [ "to hobble" ]
  },
  {
    "normalForm": "hepian",
    "id": 2908,
    "translations": [ "to nod off" ]
  },
  {
    "normalForm": "haglo",
    "id": 2918,
    "translations": [ "to haggle" ]
  },
  {
    "normalForm": "heldrin",
    "id": 2942,
    "translations": [ "to rouse" ]
  },
  {
    "normalForm": "hysbyddu",
    "id": 2951,
    "translations": [ "to exhaust" ]
  },
  {
    "normalForm": "hwde",
    "id": 2953,
    "translations": [ "to plenty" ]
  },
  {
    "normalForm": "haldio",
    "id": 2971,
    "translations": [ "to totter" ]
  },
  {
    "normalForm": "hoenynnu",
    "id": 3000,
    "translations": [ "to snare" ]
  },
  {
    "normalForm": "heneiddio",
    "id": 3020,
    "translations": [ "to age" ]
  },
  {
    "normalForm": "hwylfyrddio",
    "id": 3032,
    "translations": [ "to sailboard" ]
  },
  {
    "normalForm": "hwyluso",
    "id": 3040,
    "translations": [ "to facilitate" ]
  },
  {
    "normalForm": "hau",
    "stem": "heu",
    "id": 3042,
    "translations": [ "to sow" ]
  },
  {
    "normalForm": "hintio",
    "id": 3044,
    "translations": [ "to hint" ]
  },
  {
    "normalForm": "hynodi",
    "id": 3061,
    "translations": [ "to distinguish" ]
  },
  {
    "normalForm": "heidio",
    "id": 3063,
    "translations": [ "to swarm" ]
  },
  {
    "normalForm": "heclo",
    "id": 3075,
    "translations": [ "to heckle" ]
  },
  {
    "normalForm": "heu",
    "id": 3099,
    "translations": [ "to sow" ]
  },
  {
    "normalForm": "hoywi",
    "stem": "hoy",
    "id": 3117,
    "translations": [ "to brighten" ]
  },
  {
    "normalForm": "halltu",
    "id": 3144,
    "translations": [ "to salt" ]
  },
  {
    "normalForm": "hapno",
    "id": 3146,
    "translations": [ "to happen" ]
  },
  {
    "normalForm": "hunanymwadu",
    "id": 3152,
    "translations": [ "to deny oneself" ]
  },
  {
    "normalForm": "hylifo",
    "id": 3178,
    "translations": [ "to liquidise" ]
  },
  {
    "normalForm": "hwpio",
    "id": 3188,
    "translations": [ "to ram" ]
  },
  {
    "normalForm": "hogi",
    "id": 3224,
    "translations": [ "to whet" ]
  },
  {
    "normalForm": "hwfro",
    "id": 3240,
    "translations": [ "to hoover" ]
  },
  {
    "normalForm": "hobnobio",
    "id": 3270,
    "translations": [ "to hobnob" ]
  },
  {
    "normalForm": "hunangadw",
    "id": 3294,
    "translations": [ "to autosave" ]
  },
  {
    "normalForm": "hyrddio",
    "id": 3307,
    "translations": [ "to ram" ]
  },
  {
    "normalForm": "hindreulio",
    "id": 3329,
    "translations": [ "to weather" ]
  },
  {
    "normalForm": "heicio",
    "id": 3330,
    "translations": [ "to hike" ]
  },
  {
    "normalForm": "hypnoteiddio",
    "id": 3351,
    "translations": [ "to hypnotise" ]
  },
  {
    "normalForm": "hidroleiddio",
    "id": 3394,
    "translations": [ "to hydrolyse" ]
  },
  {
    "normalForm": "herwgipio",
    "id": 3413,
    "translations": [ "to kidnap" ]
  },
  {
    "normalForm": "haldian",
    "id": 3415,
    "translations": [ "to totter" ]
  },
  {
    "normalForm": "hoetian",
    "id": 3468,
    "translations": [ "to gallivant" ]
  },
  {
    "normalForm": "hifio",
    "id": 3529,
    "translations": [ "to heave" ]
  },
  {
    "normalForm": "hisian",
    "id": 3586,
    "translations": [ "to hiss" ]
  },
  {
    "normalForm": "hudladrata",
    "id": 3634,
    "translations": [ "to swindle" ]
  },
  {
    "normalForm": "hepgor",
    "id": 3658,
    "translations": [ "to omit" ]
  },
  {
    "normalForm": "hysbysu",
    "id": 3694,
    "translations": [ "to announce" ]
  },
  {
    "normalForm": "herian",
    "id": 3712,
    "translations": [ "to tease" ]
  },
  {
    "normalForm": "hwrio",
    "id": 3731,
    "translations": [ "to whore" ]
  },
  {
    "normalForm": "hastio",
    "id": 3786,
    "translations": [ "to hurry" ]
  },
  {
    "normalForm": "hiffio",
    "id": 3817,
    "translations": [ "to drift" ]
  },
  {
    "normalForm": "halogi",
    "id": 3831,
    "translations": [ "to sully" ]
  },
  {
    "normalForm": "hwyhau",
    "stem": "hwyhe",
    "id": 3836,
    "translations": [ "to lengthen" ]
  },
  {
    "normalForm": "handlo",
    "id": 3838,
    "translations": [ "to handle" ]
  },
  {
    "normalForm": "heislanu",
    "id": 3862,
    "translations": [ "to hackle flax" ]
  },
  {
    "normalForm": "hifflo",
    "id": 3896,
    "translations": [ "to gush" ]
  },
  {
    "normalForm": "hemio",
    "id": 3930,
    "translations": [ "to hem" ]
  },
  {
    "normalForm": "huddo",
    "id": 3962,
    "translations": [ "to cover" ]
  },
  {
    "normalForm": "hwrdda",
    "id": 4139,
    "translations": [ "to mate" ]
  },
  {
    "normalForm": "hulio",
    "id": 4148,
    "translations": [ "to lay" ]
  },
  {
    "normalForm": "haenellu",
    "id": 4153,
    "translations": [ "to plate" ]
  },
  {
    "normalForm": "hwyro",
    "id": 4298,
    "translations": [ "to delay" ]
  },
  {
    "normalForm": "hesbio",
    "id": 4311,
    "translations": [ "to dry" ]
  },
  {
    "normalForm": "hiraethu",
    "id": 4319,
    "translations": [ "to long for" ]
  },
  {
    "normalForm": "helmu",
    "id": 4322,
    "translations": [ "to build a corn-rick" ]
  },
  {
    "normalForm": "hyweddu",
    "id": 4354,
    "translations": [ "to pacify" ]
  },
  {
    "normalForm": "hindro",
    "id": 4382,
    "translations": [ "to hinder" ]
  },
  {
    "normalForm": "hyffio",
    "id": 4459,
    "translations": [ "to huff" ]
  },
  {
    "normalForm": "heuru",
    "id": 4524,
    "translations": [ "to assert" ]
  },
  {
    "normalForm": "heulo",
    "id": 4596,
    "translations": [ "to sun" ]
  }
]