[
  {
    "normalForm": "wylo",
    "id": 743
  },
  {
    "normalForm": "watsied",
    "id": 841,
    "translations": [ "to watch" ]
  },
  {
    "normalForm": "watsio",
    "id": 935,
    "translations": [ "to watch" ]
  },
  {
    "normalForm": "walio",
    "id": 936,
    "translations": [ "to wall" ]
  },
  {
    "normalForm": "wylofain",
    "stem": "wylofeini",
    "id": 982,
    "translations": [ "to wail" ]
  },
  {
    "normalForm": "watsiad",
    "id": 1013,
    "translations": [ "to watch" ]
  },
  {
    "normalForm": "weindio",
    "id": 1077,
    "translations": [ "to wind" ]
  },
  {
    "normalForm": "wfftian",
    "id": 1235,
    "translations": [ "to deride" ]
  },
  {
    "normalForm": "wincian",
    "id": 1333,
    "translations": [ "to wink" ]
  },
  {
    "normalForm": "weldio",
    "id": 1371,
    "translations": [ "to weld" ]
  },
  {
    "normalForm": "wincio",
    "id": 1583,
    "translations": [ "to wink" ]
  },
  {
    "normalForm": "warnio",
    "id": 1634,
    "translations": [ "to warn" ]
  },
  {
    "normalForm": "waldio",
    "id": 1661,
    "translations": [ "to thrash" ]
  },
  {
    "normalForm": "wynebu",
    "id": 1757,
    "translations": [ "to face" ]
  },
  {
    "normalForm": "weiro",
    "id": 1837,
    "translations": [ "to wire" ]
  },
  {
    "normalForm": "whado",
    "id": 2101,
    "translations": [ "to wallop" ]
  },
  {
    "normalForm": "wyna",
    "id": 2283,
    "translations": [ "to lamb" ]
  },
  {
    "normalForm": "whilo",
    "id": 2462,
    "translations": [ "to wheel" ]
  },
  {
    "normalForm": "weifio",
    "id": 2518,
    "translations": [ "to wave" ]
  },
  {
    "normalForm": "waetsiad",
    "id": 2600,
    "translations": [ "to watch" ]
  },
  {
    "normalForm": "wandro",
    "id": 2832,
    "translations": [ "to wander" ]
  },
  {
    "normalForm": "wado",
    "id": 2854,
    "translations": [ "to wallop" ]
  },
  {
    "normalForm": "wastio",
    "id": 2926,
    "translations": [ "to waste" ]
  },
  {
    "normalForm": "wban",
    "id": 3216,
    "translations": [ "to sigh" ]
  },
  {
    "normalForm": "wafflo",
    "id": 3279,
    "translations": [ "to waffle" ]
  },
  {
    "normalForm": "wafio",
    "id": 3661,
    "translations": [ "to wave" ]
  },
  {
    "normalForm": "woblo",
    "id": 3855,
    "translations": [ "to wobble" ]
  },
  {
    "normalForm": "weirio",
    "id": 4091,
    "translations": [ "to wire" ]
  },
  {
    "normalForm": "wfftio",
    "id": 4321,
    "translations": [ "to deride" ]
  },
  {
    "normalForm": "wyneblasu",
    "id": 4615,
    "translations": [ "to turn pale" ]
  }
]