[
  {
    "normalForm": "ffôn",
    "gender": "m",
    "etymology": "Borrowed from English phone",
    "plural": ["ffonau"]
  },
  {
    "normalForm": "ffwrdd",
    "plural": ["ffyrdd"]
  },
  {
    "normalForm": "ffisigwr",
    "id": 30034,
    "translations": [ "physician" ],
    "isCountable": false,
    "gender": "m"
  },
  {
    "normalForm": "fflora",
    "id": 30058,
    "translations": [ "flora" ],
    "isCountable": false,
    "gender": "f"
  },
  {
    "normalForm": "ffresgo",
    "id": 30079,
    "translations": [ "fresco" ],
    "plural": [ "ffresgos" ],
    "gender": "m"
  },
  {
    "normalForm": "ffactor graddfa",
    "id": 30132,
    "translations": [ "scale factor" ],
    "plural": [ "ffactorau graddfa" ],
    "gender": "m"
  },
  {
    "normalForm": "ffisioleg",
    "id": 30141,
    "translations": [ "physiology" ],
    "isCountable": false,
    "gender": "f"
  },
  {
    "normalForm": "fferi",
    "id": 30212,
    "translations": [ "ferry" ],
    "isCountable": false,
    "gender": "f"
  },
  {
    "normalForm": "fferm",
    "id": 30232,
    "translations": [ "farm" ],
    "plural": [ "ffermiau", "ffermydd" ],
    "gender": "f"
  },
  {
    "normalForm": "finyl",
    "id": 30260,
    "translations": [ "vinyl" ],
    "isCountable": false,
    "gender": "m"
  },
  {
    "normalForm": "ffresni",
    "id": 30311,
    "translations": [ "freshness" ],
    "isCountable": false,
    "gender": "m"
  },
  {
    "normalForm": "ffens",
    "id": 30324,
    "translations": [ "fence" ],
    "plural": [ "ffensys" ],
    "gender": "f"
  },
  {
    "normalForm": "fflocs",
    "id": 30375,
    "translations": [ "phlox" ],
    "plural": [ "fflocs" ],
    "gender": "m"
  },
  {
    "normalForm": "ffwng",
    "id": 30455,
    "translations": [ "fungus" ],
    "plural": [ "ffyngoedd" ],
    "gender": "m"
  },
  {
    "normalForm": "fformwla",
    "id": 30474,
    "translations": [ "formula" ],
    "isCountable": false,
    "gender": "f"
  },
  {
    "normalForm": "fiola",
    "id": 30606,
    "translations": [ "viola" ],
    "isCountable": false,
    "gender": "f"
  },
  {
    "normalForm": "ffolineb",
    "id": 30667,
    "translations": [ "simplicity" ],
    "plural": [ "ffolinebau" ],
    "gender": "m"
  },
  {
    "normalForm": "ffansi",
    "id": 30698,
    "translations": [ "fancy" ],
    "plural": [ "fansïau", "ffansïau" ],
    "gender": "f"
  },
  {
    "normalForm": "ffrwgwd",
    "id": 30725,
    "translations": [ "squabble" ],
    "isCountable": false,
    "gender": "mf"
  },
  {
    "normalForm": "ffasner",
    "id": 30760,
    "translations": [ "fastener" ],
    "plural": [ "ffasneri" ],
    "gender": "m"
  },
  {
    "normalForm": "ffafriaeth",
    "id": 30790,
    "translations": [ "favour" ],
    "isCountable": false,
    "gender": "f"
  },
  {
    "normalForm": "foliwm",
    "id": 30901,
    "translations": [ "volume" ],
    "plural": [ "foliwmau" ],
    "gender": "mf"
  },
  {
    "normalForm": "ffidliwr",
    "id": 30929,
    "translations": [ "fiddler" ],
    "isCountable": false,
    "gender": "m"
  },
  {
    "normalForm": "ffurf",
    "id": 30981,
    "translations": [ "form" ],
    "plural": [ "ffurfiau" ],
    "gender": "f"
  },
  {
    "normalForm": "ffrwydr",
    "id": 31060,
    "translations": [ "explosive" ],
    "plural": [ "ffrwydron" ],
    "gender": "m"
  },
  {
    "normalForm": "ffelt",
    "id": 31101,
    "translations": [ "felt" ],
    "isCountable": false,
    "gender": "m"
  },
  {
    "normalForm": "ffraethineb",
    "id": 31111,
    "translations": [ "wit" ],
    "plural": [ "ffraethinebau" ],
    "gender": "mf"
  },
  {
    "normalForm": "ffeil",
    "id": 31126,
    "translations": [ "file" ],
    "plural": [ "ffeiliau" ],
    "gender": "f"
  },
  {
    "normalForm": "ffein",
    "id": 31127,
    "translations": [ "fine" ],
    "plural": [ "ffeiniau" ],
    "gender": "f"
  },
  {
    "normalForm": "ffeit",
    "id": 31139,
    "translations": [ "fight" ],
    "plural": [ "ffeits" ],
    "gender": "f"
  },
  {
    "normalForm": "ffensiwr",
    "id": 31168,
    "translations": [ "fencer" ],
    "plural": [ "ffenswyr" ],
    "gender": "m"
  },
  {
    "normalForm": "ffitrwydd",
    "id": 31174,
    "translations": [ "fitness" ],
    "isCountable": false,
    "gender": "m"
  },
  {
    "normalForm": "ffrâm",
    "id": 31273,
    "translations": [ "frame" ],
    "plural": [ "fframiau" ],
    "gender": "m"
  },
  {
    "normalForm": "ffrwyth",
    "id": 31360,
    "translations": [ "fruit" ],
    "plural": [ "ffrwythau" ],
    "gender": "m"
  },
  {
    "normalForm": "ffeil gofnod",
    "id": 31380,
    "translations": [ "logfile" ],
    "plural": [ "ffeiliau cofnod" ],
    "gender": "f"
  },
  {
    "normalForm": "ffwndamentalwr",
    "id": 31401,
    "translations": [ "fundamentalist" ],
    "plural": [ "ffwndamentalwyr" ],
    "gender": "m"
  },
  {
    "normalForm": "fandal",
    "id": 31407,
    "translations": [ "vandal" ],
    "plural": [ "fandaliaid" ],
    "gender": "m"
  },
  {
    "normalForm": "finegr",
    "id": 31426,
    "translations": [ "vinegar" ],
    "isCountable": false,
    "gender": "m"
  },
  {
    "normalForm": "ffydd",
    "id": 31432,
    "translations": [ "faith" ],
    "plural": [ "ffyddau", "ffyddiau" ],
    "gender": "f"
  },
  {
    "normalForm": "feiolin",
    "id": 31456,
    "translations": [ "violin" ],
    "isCountable": false,
    "gender": "f"
  },
  {
    "normalForm": "figaniaeth",
    "id": 31581,
    "translations": [ "veganism" ],
    "isCountable": false,
    "gender": "f"
  },
  {
    "normalForm": "ffarmwr",
    "id": 31729,
    "translations": [ "farmer" ],
    "plural": [ "ffermwyr" ],
    "gender": "m"
  },
  {
    "normalForm": "ffelon",
    "id": 31765,
    "translations": [ "felon" ],
    "plural": [ "ffeloniaid" ],
    "gender": "m"
  },
  {
    "normalForm": "ffŵl",
    "id": 31776,
    "translations": [ "fool" ],
    "plural": [ "ffyliaid" ],
    "gender": "m"
  },
  {
    "normalForm": "ffyrm",
    "id": 31795,
    "translations": [ "firm" ],
    "plural": [ "ffyrmiau" ],
    "gender": "f"
  },
  {
    "normalForm": "ffigys",
    "id": 31819,
    "translations": [ "fig" ],
    "plural": [ "ffigys" ],
    "gender": "m"
  },
  {
    "normalForm": "ffacsimili",
    "id": 31832,
    "translations": [ "facsimile" ],
    "plural": [ "ffacsimilïau" ],
    "gender": "m"
  },
  {
    "normalForm": "ffigwr",
    "id": 31846,
    "translations": [ "figure" ],
    "plural": [ "ffigyrau" ],
    "gender": "f"
  },
  {
    "normalForm": "ffranc",
    "id": 31866,
    "translations": [ "franc" ],
    "plural": [ "ffranciau" ],
    "gender": "m"
  },
  {
    "normalForm": "felfed",
    "id": 31868,
    "translations": [ "velvet" ],
    "isCountable": false,
    "gender": "m"
  },
  {
    "normalForm": "fan",
    "id": 31878,
    "translations": [ "van" ],
    "plural": [ "faniau" ],
    "gender": "f"
  },
  {
    "normalForm": "fas",
    "id": 31883,
    "translations": [ "vase" ],
    "plural": [ "fasys" ],
    "gender": "f"
  },
  {
    "normalForm": "ffigur",
    "id": 31894,
    "translations": [ "figure" ],
    "plural": [ "ffigurau" ],
    "gender": "mf"
  },
  {
    "normalForm": "ffurfafen",
    "id": 31908,
    "translations": [ "sky" ],
    "plural": [ "ffurfafennau" ],
    "gender": "f"
  },
  {
    "normalForm": "fei",
    "id": 31966,
    "translations": [ "view" ],
    "isCountable": false,
    "gender": "m"
  },
  {
    "normalForm": "fet",
    "id": 31976,
    "translations": [ "veterinary surgeon" ],
    "plural": [ "fets" ],
    "gender": "m"
  },
  {
    "normalForm": "ffi",
    "id": 31988,
    "translations": [ "fee" ],
    "plural": [ "ffïoedd", "ffioedd" ],
    "gender": "f"
  },
  {
    "normalForm": "ffo",
    "id": 31994,
    "translations": [ "flight" ],
    "isCountable": false,
    "gender": "m"
  },
  {
    "normalForm": "ffugenw",
    "id": 32103,
    "translations": [ "aliase" ],
    "plural": [ "ffugenwau", "ffugenwau" ],
    "gender": "m"
  },
  {
    "normalForm": "ffynhonnell",
    "id": 32140,
    "translations": [ "source" ],
    "plural": [ "ffynonellau" ],
    "gender": "f"
  },
  {
    "normalForm": "fflasg",
    "id": 32171,
    "translations": [ "flask" ],
    "plural": [ "fflasgiau" ],
    "gender": "f"
  },
  {
    "normalForm": "fforiad",
    "id": 32215,
    "translations": [ "exploration" ],
    "isCountable": false,
    "gender": "m"
  },
  {
    "normalForm": "fersiwn deuaidd",
    "id": 32261,
    "translations": [ "binary" ],
    "plural": [ "fersiynau deuaidd" ],
    "gender": "m"
  },
  {
    "normalForm": "feiolinydd",
    "id": 32283,
    "translations": [ "violinist" ],
    "isCountable": false,
    "gender": "m"
  },
  {
    "normalForm": "fflans",
    "id": 32293,
    "translations": [ "flange" ],
    "plural": [ "fflansiau" ],
    "gender": "mf"
  },
  {
    "normalForm": "ffeminyddiaeth",
    "id": 32303,
    "translations": [ "feminism" ],
    "isCountable": false,
    "gender": "f"
  },
  {
    "normalForm": "ffefryn",
    "id": 32326,
    "translations": [ "favourite" ],
    "plural": [ "ffefrynnau" ],
    "gender": "m"
  },
  {
    "normalForm": "feranda",
    "id": 32402,
    "translations": [ "verandah" ],
    "plural": [ "ferandas" ],
    "gender": "m"
  },
  {
    "normalForm": "ffwrn",
    "id": 32417,
    "translations": [ "pot" ],
    "plural": [ "ffyrnau" ],
    "gender": "f"
  },
  {
    "normalForm": "fyr",
    "id": 32419,
    "translations": [ "fir" ],
    "isCountable": false,
    "gender": "f"
  },
  {
    "normalForm": "ffenomen",
    "id": 32420,
    "translations": [ "phenomenon" ],
    "plural": [ "ffenomenau" ],
    "gender": "f"
  },
  {
    "normalForm": "ffyrnigrwydd",
    "id": 32444,
    "translations": [ "adultery" ],
    "isCountable": false,
    "gender": "m"
  },
  {
    "normalForm": "ffortiwn",
    "id": 32494,
    "translations": [ "fortune" ],
    "plural": [ "ffortiwns", "ffortiynau" ],
    "gender": "f"
  },
  {
    "normalForm": "fflach",
    "id": 32508,
    "translations": [ "flash" ],
    "plural": [ "fflachiau" ],
    "gender": "f"
  },
  {
    "normalForm": "ffenigl",
    "id": 32510,
    "translations": [ "fennel" ],
    "isCountable": false,
    "gender": "m"
  },
  {
    "normalForm": "ffwrch",
    "id": 32527,
    "translations": [ "fork" ],
    "plural": [ "ffyrchau" ],
    "gender": "mf"
  },
  {
    "normalForm": "ffenics",
    "id": 32599,
    "translations": [ "phoenix" ],
    "isCountable": false,
    "gender": "mf"
  },
  {
    "normalForm": "ffoetws",
    "id": 32712,
    "translations": [ "foetus" ],
    "plural": [ "ffoetysau" ],
    "gender": "m"
  },
  {
    "normalForm": "ffedogaid",
    "id": 32818,
    "translations": [ "apronful" ],
    "plural": [ "ffedogeidiau" ],
    "gender": "f"
  },
  {
    "normalForm": "ffowlyn",
    "id": 32838,
    "plural": [ "ffowls" ],
    "gender": "m"
  },
  {
    "normalForm": "fisit",
    "id": 32868,
    "translations": [ "visit" ],
    "plural": [ "fisits" ],
    "gender": "f"
  },
  {
    "normalForm": "fercwri",
    "id": 32906,
    "translations": [ "mercury" ],
    "isCountable": false,
    "gender": "m"
  },
  {
    "normalForm": "ffiws",
    "id": 32969,
    "translations": [ "fuse" ],
    "plural": [ "ffiwsys" ],
    "gender": "m"
  },
  {
    "normalForm": "ffotograffwr",
    "id": 33026,
    "translations": [ "photographer" ],
    "plural": [ "ffotograffwyr" ],
    "gender": "m"
  },
  {
    "normalForm": "fflachiad",
    "id": 33047,
    "translations": [ "flashing" ],
    "plural": [ "fflachiadau" ],
    "gender": "m"
  },
  {
    "normalForm": "ffantom",
    "id": 33069,
    "translations": [ "phantom" ],
    "plural": [ "ffantomau" ],
    "gender": "m"
  },
  {
    "normalForm": "ffefer",
    "id": 33072,
    "translations": [ "fever" ],
    "isCountable": false,
    "gender": "f"
  },
  {
    "normalForm": "ffleiar",
    "id": 33128,
    "translations": [ "flyer" ],
    "plural": [ "ffleiars" ],
    "gender": "m"
  },
  {
    "normalForm": "ffactor",
    "id": 33140,
    "translations": [ "factor" ],
    "plural": [ "ffactorau" ],
    "gender": "m"
  },
  {
    "normalForm": "fflochen",
    "id": 33153,
    "translations": [ "pimple" ],
    "isCountable": false,
    "gender": "f"
  },
  {
    "normalForm": "ffeinal",
    "id": 33168,
    "translations": [ "final" ],
    "isCountable": false,
    "gender": "m"
  },
  {
    "normalForm": "ffactri",
    "id": 33171,
    "translations": [ "factory" ],
    "isCountable": false,
    "gender": "f"
  },
  {
    "normalForm": "ffindir",
    "id": 33247,
    "translations": [ "border" ],
    "plural": [ "ffindiroedd" ],
    "gender": "m"
  },
  {
    "normalForm": "fodca",
    "id": 33290,
    "translations": [ "vodka" ],
    "isCountable": false,
    "gender": "m"
  },
  {
    "normalForm": "ffoswn",
    "id": 33314,
    "translations": [ "hanger" ],
    "isCountable": false,
    "gender": "f"
  },
  {
    "normalForm": "ffagots",
    "id": 33350,
    "translations": [ "faggot" ],
    "plural": [ "ffagots" ],
    "gender": "m"
  },
  {
    "normalForm": "ffaeledd",
    "id": 33407,
    "translations": [ "failing" ],
    "plural": [ "ffaeleddau" ],
    "gender": "m"
  },
  {
    "normalForm": "fferyllwr",
    "id": 33416,
    "translations": [ "pharmacist" ],
    "plural": [ "fferyllwyr" ],
    "gender": "m"
  },
  {
    "normalForm": "ffibr",
    "id": 33471,
    "translations": [ "fibre" ],
    "isCountable": false,
    "gender": "m"
  },
  {
    "normalForm": "ficer, tŷ",
    "id": 33475,
    "translations": [ "vicarage" ],
    "isCountable": false,
    "gender": "m"
  },
  {
    "normalForm": "fitamin",
    "id": 33494,
    "translations": [ "vitamin" ],
    "plural": [ "fitaminau" ],
    "gender": "m"
  },
  {
    "normalForm": "ffyrlo",
    "id": 33543,
    "translations": [ "furlough" ],
    "isCountable": false,
    "gender": "m"
  },
  {
    "normalForm": "ffonograff",
    "id": 33554,
    "translations": [ "phonograph" ],
    "plural": [ "ffonograffau" ],
    "gender": "f"
  },
  {
    "normalForm": "ffreutur",
    "id": 33581,
    "translations": [ "refectory" ],
    "isCountable": false,
    "gender": "mf"
  },
  {
    "normalForm": "ffriter",
    "id": 33643,
    "plural": [ "ffriterau" ],
    "gender": "f"
  },
  {
    "normalForm": "ffacbys",
    "id": 33651,
    "translations": [ "vetche" ],
    "plural": [ "ffacbys" ],
    "gender": "m"
  },
  {
    "normalForm": "ffuglen",
    "id": 33695,
    "translations": [ "fiction" ],
    "isCountable": false,
    "gender": "f"
  },
  {
    "normalForm": "ffeministiaeth",
    "id": 33706,
    "translations": [ "feminism" ],
    "plural": [ "ffeministiaethau" ],
    "gender": "f"
  },
  {
    "normalForm": "ffrithiant",
    "id": 33719,
    "translations": [ "friction" ],
    "isCountable": false,
    "gender": "m"
  },
  {
    "normalForm": "ffosfforws",
    "id": 33722,
    "translations": [ "phosphorus" ],
    "isCountable": false,
    "gender": "m"
  },
  {
    "normalForm": "ffion",
    "id": 33794,
    "translations": [ "rose" ],
    "isCountable": false,
    "gender": "m"
  },
  {
    "normalForm": "ffiol",
    "id": 33800,
    "translations": [ "phial" ],
    "isCountable": false,
    "gender": "mf"
  },
  {
    "normalForm": "firws",
    "id": 33862,
    "translations": [ "virus" ],
    "plural": [ "firysau" ],
    "gender": "m"
  },
  {
    "normalForm": "ffilm",
    "id": 33900,
    "translations": [ "film" ],
    "plural": [ "ffilmiau", "ffilms" ],
    "gender": "f"
  },
  {
    "normalForm": "ffisig",
    "id": 33924,
    "translations": [ "medicine" ],
    "isCountable": false,
    "gender": "mf"
  },
  {
    "normalForm": "falf",
    "id": 33925,
    "translations": [ "valve" ],
    "plural": [ "falfiau" ],
    "gender": "f"
  },
  {
    "normalForm": "ffestifal",
    "id": 33933,
    "translations": [ "festival" ],
    "isCountable": false,
    "gender": "m"
  },
  {
    "normalForm": "ffwlbart",
    "id": 33936,
    "translations": [ "polecat" ],
    "isCountable": false,
    "gender": "m"
  },
  {
    "normalForm": "ffocws",
    "id": 33971,
    "translations": [ "focus" ],
    "plural": [ "ffocysau", "ffocysys" ],
    "gender": "m"
  },
  {
    "normalForm": "ffiseg",
    "id": 33995,
    "translations": [ "physics" ],
    "isCountable": false,
    "gender": "f"
  },
  {
    "normalForm": "fferyllfa",
    "id": 33996,
    "translations": [ "laboratory" ],
    "plural": [ "fferyllfaoedd", "fferyllfeydd" ],
    "gender": "f"
  },
  {
    "normalForm": "ffeltiwr",
    "id": 34029,
    "translations": [ "hatter" ],
    "isCountable": false,
    "gender": "m"
  },
  {
    "normalForm": "ffliw",
    "id": 34046,
    "translations": [ "flu" ],
    "plural": [ "ffliwau", "ffliwiau" ],
    "gender": "f"
  },
  {
    "normalForm": "ffiden",
    "id": 34047,
    "translations": [ "feed" ],
    "isCountable": false,
    "gender": "f"
  },
  {
    "normalForm": "fowel",
    "id": 34053,
    "translations": [ "vowel" ],
    "plural": [ "fowels" ],
    "gender": "f"
  },
  {
    "normalForm": "ffosffor",
    "id": 34056,
    "translations": [ "phosphorus" ],
    "isCountable": false,
    "gender": "m"
  },
  {
    "normalForm": "ffôrs",
    "id": 34127,
    "translations": [ "force" ],
    "isCountable": false,
    "gender": "m"
  },
  {
    "normalForm": "fflat",
    "id": 34189,
    "translations": [ "flat" ],
    "plural": [ "fflatiau" ],
    "gender": "f"
  },
  {
    "normalForm": "fflan",
    "id": 34191,
    "translations": [ "flan" ],
    "plural": [ "fflaniau" ],
    "gender": "mf"
  },
  {
    "normalForm": "fflam",
    "id": 34192,
    "translations": [ "flame" ],
    "plural": [ "fflamau" ],
    "gender": "f"
  },
  {
    "normalForm": "fflap",
    "id": 34194,
    "translations": [ "flap" ],
    "isCountable": false,
    "gender": "mf"
  },
  {
    "normalForm": "fflag",
    "id": 34200,
    "translations": [ "flag" ],
    "isCountable": false,
    "gender": "m"
  },
  {
    "normalForm": "fflaw",
    "id": 34216,
    "translations": [ "splinter" ],
    "plural": [ "fflawiau" ],
    "gender": "m"
  },
  {
    "normalForm": "ffawdheglwr",
    "id": 34265,
    "translations": [ "hitch-hiker" ],
    "isCountable": false,
    "gender": "m"
  },
  {
    "normalForm": "ffwtbol",
    "id": 34269,
    "translations": [ "football" ],
    "isCountable": false,
    "gender": "m"
  },
  {
    "normalForm": "fideo",
    "id": 34284,
    "translations": [ "videos" ],
    "plural": [ "fideos" ],
    "gender": "m"
  },
  {
    "normalForm": "ffugiad",
    "id": 34308,
    "translations": [ "forgery" ],
    "isCountable": false,
    "gender": "m"
  },
  {
    "normalForm": "fforchiad",
    "id": 34332,
    "translations": [ "fork" ],
    "isCountable": false,
    "gender": "mf"
  },
  {
    "normalForm": "ffrydiad",
    "id": 34365,
    "translations": [ "flowing" ],
    "plural": [ "ffrydiadau" ],
    "gender": "m"
  },
  {
    "normalForm": "fflyd",
    "id": 34398,
    "translations": [ "fleet" ],
    "isCountable": false,
    "gender": "f"
  },
  {
    "normalForm": "fflur",
    "id": 34401,
    "translations": [ "fairness" ],
    "isCountable": false,
    "gender": "f"
  },
  {
    "normalForm": "ffrewyll",
    "id": 34409,
    "translations": [ "whip" ],
    "isCountable": false,
    "gender": "mf"
  },
  {
    "normalForm": "fertigo",
    "id": 34416,
    "translations": [ "vertigo" ],
    "isCountable": false,
    "gender": "m"
  },
  {
    "normalForm": "ffeindrwydd",
    "id": 34432,
    "translations": [ "kindness" ],
    "isCountable": false,
    "gender": "m"
  },
  {
    "normalForm": "ffederaliaeth",
    "id": 34437,
    "translations": [ "federalism" ],
    "isCountable": false,
    "gender": "f"
  },
  {
    "normalForm": "ffosffad",
    "id": 34463,
    "translations": [ "phosphate" ],
    "isCountable": false,
    "gender": "m"
  },
  {
    "normalForm": "ffenomenon",
    "id": 34506,
    "translations": [ "phenomenon" ],
    "plural": [ "ffenomena" ],
    "gender": "mf"
  },
  {
    "normalForm": "ffarmacoleg",
    "id": 34511,
    "translations": [ "pharmacology" ],
    "isCountable": false,
    "gender": "f"
  },
  {
    "normalForm": "fflop",
    "id": 34515,
    "translations": [ "flop" ],
    "isCountable": false,
    "gender": "mf"
  },
  {
    "normalForm": "fflos",
    "id": 34531,
    "translations": [ "floss" ],
    "isCountable": false,
    "gender": "m"
  },
  {
    "normalForm": "ffisiotherapydd",
    "id": 34552,
    "translations": [ "physiotherapist" ],
    "plural": [ "ffisiotherapyddion" ],
    "gender": "m"
  },
  {
    "normalForm": "fferyllydd",
    "id": 34567,
    "translations": [ "pharmacist" ],
    "isCountable": false,
    "gender": "m"
  },
  {
    "normalForm": "fêl",
    "id": 34581,
    "translations": [ "veil" ],
    "plural": [ "fêls" ],
    "gender": "f"
  },
  {
    "normalForm": "fformat",
    "id": 34595,
    "translations": [ "format" ],
    "plural": [ "fformatiau" ],
    "gender": "m"
  },
  {
    "normalForm": "fertig",
    "id": 34597,
    "translations": [ "vertice" ],
    "plural": [ "fertigau" ],
    "gender": "m"
  },
  {
    "normalForm": "fforman",
    "id": 34598,
    "translations": [ "foreman" ],
    "plural": [ "fformyn" ],
    "gender": "m"
  },
  {
    "normalForm": "ffugiwr",
    "id": 34647,
    "translations": [ "forger" ],
    "plural": [ "ffugwyr" ],
    "gender": "m"
  },
  {
    "normalForm": "ffon fetr",
    "id": 34658,
    "translations": [ "metre rule" ],
    "plural": [ "ffyn metr" ],
    "gender": "f"
  },
  {
    "normalForm": "ffanbelt",
    "id": 34679,
    "translations": [ "fan belt" ],
    "plural": [ "ffanbeltiau" ],
    "gender": "m"
  },
  {
    "normalForm": "fôt",
    "id": 34776,
    "translations": [ "vote" ],
    "plural": [ "fotiau" ],
    "gender": "f"
  },
  {
    "normalForm": "fferins",
    "id": 34782,
    "translations": [ "sweet" ],
    "plural": [ "ffeirins", "fferins" ],
    "gender": "mf"
  },
  {
    "normalForm": "ffroth",
    "id": 34943,
    "translations": [ "foam" ],
    "isCountable": false,
    "gender": "m"
  },
  {
    "normalForm": "ffederasiwn",
    "id": 35032,
    "translations": [ "federation" ],
    "isCountable": false,
    "gender": "m"
  },
  {
    "normalForm": "ffrond",
    "id": 35039,
    "translations": [ "frond" ],
    "plural": [ "ffrondau" ],
    "gender": "m"
  },
  {
    "normalForm": "ffenestr",
    "id": 35052,
    "translations": [ "window" ],
    "plural": [ "ffenestri" ],
    "gender": "f"
  },
  {
    "normalForm": "fandaliaeth",
    "id": 35057,
    "translations": [ "vandalism" ],
    "isCountable": false,
    "gender": "f"
  },
  {
    "normalForm": "ffalsrwydd",
    "id": 35083,
    "translations": [ "falseness" ],
    "isCountable": false,
    "gender": "m"
  },
  {
    "normalForm": "ffiloreg",
    "id": 35096,
    "translations": [ "chatter" ],
    "plural": [ "ffiloregau" ],
    "gender": "mf"
  },
  {
    "normalForm": "ffeibr",
    "id": 35169,
    "translations": [ "fibre" ],
    "plural": [ "ffeibrau" ],
    "gender": "m"
  },
  {
    "normalForm": "ffroen",
    "id": 35181,
    "translations": [ "nostril" ],
    "plural": [ "ffroenau" ],
    "gender": "f"
  },
  {
    "normalForm": "ffabrig",
    "id": 35220,
    "translations": [ "fabric" ],
    "plural": [ "ffabrigau" ],
    "gender": "m"
  },
  {
    "normalForm": "ffrwydrydd",
    "id": 35227,
    "translations": [ "blaster" ],
    "plural": [ "ffrwydryddion" ],
    "gender": "m"
  },
  {
    "normalForm": "ffidil",
    "id": 35234,
    "translations": [ "fiddle" ],
    "isCountable": false,
    "gender": "f"
  },
  {
    "normalForm": "fflodiart",
    "id": 35305,
    "translations": [ "sluice" ],
    "isCountable": false,
    "gender": "f"
  },
  {
    "normalForm": "fforddol",
    "id": 35382,
    "translations": [ "traveller" ],
    "isCountable": false,
    "gender": "m"
  },
  {
    "normalForm": "ffurfydd",
    "id": 35390,
    "translations": [ "former" ],
    "plural": [ "ffurfyddion" ],
    "gender": "m"
  },
  {
    "normalForm": "ffrynt",
    "id": 35395,
    "translations": [ "front" ],
    "isCountable": false,
    "gender": "m"
  },
  {
    "normalForm": "ffeminist",
    "id": 35418,
    "translations": [ "feminist" ],
    "plural": [ "ffeministiaid" ],
    "gender": "mf"
  },
  {
    "normalForm": "ffalster",
    "id": 35422,
    "translations": [ "falseness" ],
    "isCountable": false,
    "gender": "m"
  },
  {
    "normalForm": "ffidler",
    "id": 35504,
    "translations": [ "fiddler" ],
    "plural": [ "ffidleriaid" ],
    "gender": "m"
  },
  {
    "normalForm": "ffieiddbeth",
    "id": 35522,
    "translations": [ "corruption" ],
    "isCountable": false,
    "gender": "m"
  },
  {
    "normalForm": "ffanatic",
    "id": 35527,
    "translations": [ "fanatic" ],
    "isCountable": false,
    "gender": "m"
  },
  {
    "normalForm": "ffyniant",
    "id": 35563,
    "translations": [ "prosperity" ],
    "isCountable": false,
    "gender": "m"
  },
  {
    "normalForm": "fframwaith",
    "id": 35574,
    "translations": [ "framework" ],
    "plural": [ "fframweithiau" ],
    "gender": "m"
  },
  {
    "normalForm": "ffrancon",
    "id": 35588,
    "translations": [ "beaver" ],
    "isCountable": false,
    "gender": "m"
  },
  {
    "normalForm": "ficerdy",
    "id": 35650,
    "translations": [ "vicarage" ],
    "plural": [ "ficerdai" ],
    "gender": "m"
  },
  {
    "normalForm": "fwltur",
    "id": 35679,
    "translations": [ "vulture" ],
    "isCountable": false,
    "gender": "mf"
  },
  {
    "normalForm": "foltedd",
    "id": 35680,
    "translations": [ "voltage" ],
    "plural": [ "folteddau" ],
    "gender": "mf"
  },
  {
    "normalForm": "fferwr",
    "id": 35699,
    "translations": [ "wild fierce man" ],
    "plural": [ "fferwyr" ],
    "gender": "m"
  },
  {
    "normalForm": "ffawna",
    "id": 35726,
    "translations": [ "fauna" ],
    "isCountable": false,
    "gender": "f"
  },
  {
    "normalForm": "figan",
    "id": 35739,
    "translations": [ "vegan" ],
    "plural": [ "figaniaid" ],
    "gender": "mf"
  },
  {
    "normalForm": "fflwff",
    "id": 35844,
    "translations": [ "fluff" ],
    "isCountable": false,
    "gender": "m"
  },
  {
    "normalForm": "fformiwla",
    "id": 35866,
    "translations": [ "formula" ],
    "plural": [ "fformiwlâu", "fformiwlau" ],
    "gender": "f"
  },
  {
    "normalForm": "ffugiant",
    "id": 35868,
    "translations": [ "fiction" ],
    "plural": [ "ffugiantau" ],
    "gender": "m"
  },
  {
    "normalForm": "ffiwsia",
    "id": 35878,
    "translations": [ "fuchsia" ],
    "plural": [ "ffiwsiaid" ],
    "gender": "f"
  },
  {
    "normalForm": "ffasâd",
    "id": 35893,
    "translations": [ "façade" ],
    "plural": [ "ffasadau" ],
    "gender": "m"
  },
  {
    "normalForm": "ffigysbren",
    "id": 35897,
    "translations": [ "fig-tree" ],
    "isCountable": false,
    "gender": "m"
  },
  {
    "normalForm": "ffrigad",
    "id": 35935,
    "translations": [ "frigate" ],
    "isCountable": false,
    "gender": "f"
  },
  {
    "normalForm": "ffeloniaeth",
    "id": 35962,
    "translations": [ "felony" ],
    "isCountable": false,
    "gender": "f"
  },
  {
    "normalForm": "fector",
    "id": 36003,
    "translations": [ "vector" ],
    "plural": [ "fectorau" ],
    "gender": "m"
  },
  {
    "normalForm": "ffolach",
    "id": 36035,
    "translations": [ "simpleton" ],
    "plural": [ "ffolachod" ],
    "gender": "m"
  },
  {
    "normalForm": "ffitiwr",
    "id": 36073,
    "translations": [ "fitter" ],
    "plural": [ "ffitwyr" ],
    "gender": "m"
  },
  {
    "normalForm": "ffetis",
    "id": 36075,
    "translations": [ "fetish" ],
    "plural": [ "ffetisiau" ],
    "gender": "m"
  },
  {
    "normalForm": "ffrind",
    "id": 36082,
    "translations": [ "friend" ],
    "synonyms": [ 33215 ],
    "plural": [ "ffrindiau" ],
    "gender": "mf"
  },
  {
    "normalForm": "ffrins",
    "id": 36089,
    "translations": [ "fringe" ],
    "isCountable": false,
    "gender": "f"
  },
  {
    "normalForm": "ffiord",
    "id": 36109,
    "translations": [ "fjord" ],
    "plural": [ "ffiordau" ],
    "gender": "mf"
  },
  {
    "normalForm": "ffuant",
    "id": 36213,
    "translations": [ "hypocrisy" ],
    "plural": [ "ffuantau" ],
    "gender": "m"
  },
  {
    "normalForm": "ffrier",
    "id": 36227,
    "translations": [ "friar" ],
    "plural": [ "ffrierod" ],
    "gender": "m"
  },
  {
    "normalForm": "feis",
    "id": 36228,
    "translations": [ "trigger" ],
    "plural": [ "feisys" ],
    "gender": "f"
  },
  {
    "normalForm": "folant",
    "id": 36244,
    "translations": [ "valentine" ],
    "plural": [ "folantau" ],
    "gender": "f"
  },
  {
    "normalForm": "ffolant",
    "id": 36258,
    "translations": [ "valentine" ],
    "plural": [ "ffolantau" ],
    "gender": "f"
  },
  {
    "normalForm": "ffwlsgap",
    "id": 36261,
    "translations": [ "foolscap" ],
    "isCountable": false,
    "gender": "m"
  },
  {
    "normalForm": "ffurfweddiad",
    "id": 36272,
    "translations": [ "configuration" ],
    "plural": [ "ffurfweddiadau" ],
    "gender": "m"
  },
  {
    "normalForm": "ffridd",
    "id": 36280,
    "translations": [ "moorland" ],
    "isCountable": false,
    "gender": "f"
  },
  {
    "normalForm": "fflamingo",
    "id": 36300,
    "translations": [ "flamingo" ],
    "plural": [ "fflamingos" ],
    "gender": "m"
  },
  {
    "normalForm": "ffowndri",
    "id": 36314,
    "translations": [ "foundry" ],
    "plural": [ "ffowndrïau" ],
    "gender": "f"
  },
  {
    "normalForm": "fent",
    "id": 36370,
    "translations": [ "crenel" ],
    "plural": [ "fentiau" ],
    "gender": "f"
  },
  {
    "normalForm": "ffwlbri",
    "id": 36372,
    "translations": [ "nonsense" ],
    "isCountable": false,
    "gender": "m"
  },
  {
    "normalForm": "ffitiad",
    "id": 36425,
    "translations": [ "fitting" ],
    "plural": [ "ffitiadau" ],
    "gender": "m"
  },
  {
    "normalForm": "ffotograffiaeth",
    "id": 36430,
    "translations": [ "photography" ],
    "isCountable": false,
    "gender": "f"
  },
  {
    "normalForm": "fest",
    "id": 36431,
    "translations": [ "vest" ],
    "plural": [ "festiau" ],
    "gender": "f"
  },
  {
    "normalForm": "feto",
    "id": 36436,
    "translations": [ "veto" ],
    "plural": [ "fetos" ],
    "gender": "f"
  },
  {
    "normalForm": "ffured",
    "id": 36441,
    "translations": [ "ferret" ],
    "isCountable": false,
    "gender": "f"
  },
  {
    "normalForm": "ffiloleg",
    "id": 36444,
    "translations": [ "philology" ],
    "isCountable": false,
    "gender": "f"
  },
  {
    "normalForm": "fflachlamp",
    "id": 36488,
    "translations": [ "flashlamp" ],
    "isCountable": false,
    "gender": "f"
  },
  {
    "normalForm": "ffotocopi",
    "id": 36499,
    "translations": [ "photocopy" ],
    "plural": [ "ffotocopïau" ],
    "gender": "m"
  },
  {
    "normalForm": "ffrydlif",
    "id": 36533,
    "translations": [ "stream" ],
    "isCountable": false,
    "gender": "mf"
  },
  {
    "normalForm": "ffafrddyn",
    "id": 36541,
    "translations": [ "favourite" ],
    "plural": [ "ffafrddynion" ],
    "gender": "m"
  },
  {
    "normalForm": "ffedog",
    "id": 36635,
    "translations": [ "apron" ],
    "plural": [ "ffedogau" ],
    "gender": "f"
  },
  {
    "normalForm": "fflêr",
    "id": 36642,
    "translations": [ "flair" ],
    "plural": [ "fflerau" ],
    "gender": "mf"
  },
  {
    "normalForm": "ffan",
    "id": 36648,
    "translations": [ "fan" ],
    "plural": [ "ffaniau", "ffannau", "ffans" ],
    "gender": "mf"
  },
  {
    "normalForm": "ffwrnais",
    "id": 36652,
    "translations": [ "furnace" ],
    "isCountable": false,
    "gender": "f"
  },
  {
    "normalForm": "ffai",
    "id": 36653,
    "translations": [ "forgetfulness" ],
    "isCountable": false,
    "gender": "m"
  },
  {
    "normalForm": "ffag",
    "id": 36655,
    "translations": [ "cigarette" ],
    "plural": [ "ffags" ],
    "gender": "f"
  },
  {
    "normalForm": "ffad",
    "id": 36660,
    "translations": [ "fad" ],
    "plural": [ "ffadiau" ],
    "gender": "f"
  },
  {
    "normalForm": "ffau",
    "id": 36667,
    "translations": [ "set" ],
    "plural": [ "ffeuau" ],
    "gender": "f"
  },
  {
    "normalForm": "ffat",
    "id": 36668,
    "plural": [ "ffatiau" ],
    "gender": "f"
  },
  {
    "normalForm": "ffas",
    "id": 36669,
    "translations": [ "face" ],
    "plural": [ "ffasys" ],
    "gender": "mf"
  },
  {
    "normalForm": "ffotograff",
    "id": 36712,
    "translations": [ "photograph" ],
    "plural": [ "ffotograffiau", "ffotograffau" ],
    "gender": "m"
  },
  {
    "normalForm": "ffôn cellol",
    "id": 36718,
    "translations": [ "cellular phone" ],
    "plural": [ "ffonau cellol" ],
    "gender": "m"
  },
  {
    "normalForm": "ffen",
    "id": 36729,
    "translations": [ "fen" ],
    "plural": [ "ffeniau" ],
    "gender": "mf"
  },
  {
    "normalForm": "ffed",
    "id": 36751,
    "translations": [ "fashion" ],
    "isCountable": false,
    "gender": "mf"
  },
  {
    "normalForm": "ffordd",
    "id": 36791,
    "translations": [ "motorway" ],
    "plural": [ "traffyrdd" ],
    "gender": "f"
  },
  {
    "normalForm": "ffeuen",
    "id": 36796,
    "translations": [ "bean" ],
    "plural": [ "ffa" ],
    "gender": "f"
  },
  {
    "normalForm": "ffit",
    "id": 36800,
    "translations": [ "fit" ],
    "plural": [ "ffitiau" ],
    "gender": "f"
  },
  {
    "normalForm": "ffin",
    "id": 36803,
    "translations": [ "border" ],
    "plural": [ "ffiniau", "ffiniau" ],
    "gender": "f"
  },
  {
    "normalForm": "ffil",
    "id": 36809,
    "translations": [ "fiddle" ],
    "isCountable": false,
    "gender": "f"
  },
  {
    "normalForm": "ffig",
    "id": 36833,
    "translations": [ "fig" ],
    "isCountable": false,
    "gender": "m"
  },
  {
    "normalForm": "fflàg",
    "id": 36841,
    "translations": [ "flag" ],
    "plural": [ "fflagiau" ],
    "gender": "f"
  },
  {
    "normalForm": "ffos",
    "id": 36917,
    "translations": [ "ditche" ],
    "plural": [ "ffosydd", "ffosigau" ],
    "gender": "f"
  },
  {
    "normalForm": "ffon",
    "id": 36949,
    "plural": [ "ffyniau", "ffyn" ],
    "gender": "f"
  },
  {
    "normalForm": "ffog",
    "id": 36955,
    "translations": [ "forge" ],
    "plural": [ "ffogau" ],
    "gender": "f"
  },
  {
    "normalForm": "ffod",
    "id": 36959,
    "translations": [ "foot" ],
    "plural": [ "ffodau" ],
    "gender": "m"
  },
  {
    "normalForm": "ffrwydryn",
    "id": 37055,
    "translations": [ "mine" ],
    "plural": [ "ffrwydrynnau" ],
    "gender": "m"
  },
  {
    "normalForm": "fflôt",
    "id": 37060,
    "translations": [ "float" ],
    "plural": [ "fflotiau" ],
    "gender": "f"
  },
  {
    "normalForm": "ffotosynthesis",
    "id": 37068,
    "translations": [ "photosynthesis" ],
    "isCountable": false,
    "gender": "m"
  },
  {
    "normalForm": "ffug",
    "id": 37074,
    "translations": [ "deception" ],
    "isCountable": false,
    "gender": "m"
  },
  {
    "normalForm": "ffws",
    "id": 37101,
    "translations": [ "fuss" ],
    "isCountable": false,
    "gender": "m"
  },
  {
    "normalForm": "ffwr",
    "id": 37102,
    "translations": [ "fur" ],
    "plural": [ "ffyrrau" ],
    "gender": "m"
  },
  {
    "normalForm": "ffys",
    "id": 37140,
    "translations": [ "fuss" ],
    "isCountable": false,
    "gender": "f"
  },
  {
    "normalForm": "ffyr",
    "id": 37142,
    "translations": [ "fur" ],
    "isCountable": false,
    "gender": "m"
  },
  {
    "normalForm": "ffownten",
    "id": 37146,
    "translations": [ "fountain" ],
    "plural": [ "ffowntens" ],
    "gender": "f"
  },
  {
    "normalForm": "ffarmasi",
    "id": 37169,
    "translations": [ "pharmacy" ],
    "isCountable": false,
    "gender": "m"
  },
  {
    "normalForm": "ffont",
    "id": 37215,
    "translations": [ "font" ],
    "plural": [ "ffontau", "ffontiau" ],
    "gender": "m"
  },
  {
    "normalForm": "ffons",
    "id": 37217,
    "translations": [ "spring" ],
    "isCountable": false,
    "gender": "f"
  },
  {
    "normalForm": "ffurfiad",
    "id": 37237,
    "translations": [ "formation" ],
    "plural": [ "ffurfiadau" ],
    "gender": "m"
  },
  {
    "normalForm": "ffoli",
    "id": 37243,
    "translations": [ "foolishness" ],
    "isCountable": false,
    "gender": "m"
  },
  {
    "normalForm": "ffoil",
    "id": 37288,
    "translations": [ "foil" ],
    "plural": [ "ffoiliau" ],
    "gender": "m"
  },
  {
    "normalForm": "ffermwr",
    "id": 37304,
    "translations": [ "farmer" ],
    "isCountable": false,
    "gender": "m"
  },
  {
    "normalForm": "ffosil",
    "id": 37324,
    "translations": [ "fossil" ],
    "isCountable": false,
    "gender": "m"
  },
  {
    "normalForm": "ffobia",
    "id": 37340,
    "translations": [ "phobia" ],
    "isCountable": false,
    "gender": "mf"
  },
  {
    "normalForm": "ffoel",
    "id": 37365,
    "translations": [ "defence" ],
    "plural": [ "ffoeliau" ],
    "gender": "m"
  },
  {
    "normalForm": "ffwythiant",
    "id": 37403,
    "translations": [ "function" ],
    "plural": [ "ffwythiannau" ],
    "gender": "m"
  },
  {
    "normalForm": "ffoad",
    "id": 37451,
    "translations": [ "flight" ],
    "plural": [ "ffoaid" ],
    "gender": "m"
  },
  {
    "normalForm": "ffilament",
    "id": 37477,
    "translations": [ "filament" ],
    "plural": [ "ffilamentau" ],
    "gender": "m"
  },
  {
    "normalForm": "ffliwt",
    "id": 37478,
    "translations": [ "flute" ],
    "plural": [ "ffliwtiau" ],
    "gender": "f"
  },
  {
    "normalForm": "ffiltyr",
    "id": 37484,
    "plural": [ "ffiltrau" ],
    "gender": "m"
  },
  {
    "normalForm": "ffliwc",
    "id": 37491,
    "translations": [ "liver fluke" ],
    "isCountable": false,
    "gender": "m"
  },
  {
    "normalForm": "ffurfiwr",
    "id": 37501,
    "translations": [ "former" ],
    "plural": [ "ffurfwyr" ],
    "gender": "m"
  },
  {
    "normalForm": "ffrwydrad",
    "id": 37504,
    "translations": [ "explosion" ],
    "plural": [ "ffrwydradau" ],
    "gender": "m"
  },
  {
    "normalForm": "festri",
    "id": 37516,
    "translations": [ "vestry" ],
    "plural": [ "festrïau", "festrioedd", "festrïoedd", "festriau" ],
    "gender": "f"
  },
  {
    "normalForm": "ffaith",
    "id": 37560,
    "translations": [ "fact" ],
    "plural": [ "ffeithiau" ],
    "gender": "f"
  },
  {
    "normalForm": "ffermdy",
    "id": 37582,
    "translations": [ "farmhouse" ],
    "plural": [ "ffermdai", "ffarmdai" ],
    "gender": "m"
  },
  {
    "normalForm": "ffisegwr",
    "id": 37589,
    "translations": [ "physicist" ],
    "plural": [ "ffisegwyr" ],
    "gender": "m"
  },
  {
    "normalForm": "fflint",
    "id": 37651,
    "translations": [ "flint" ],
    "plural": [ "fflintiau" ],
    "gender": "mf"
  },
  {
    "normalForm": "fersiwn",
    "id": 37679,
    "translations": [ "version" ],
    "plural": [ "fersiynau" ],
    "gender": "m"
  },
  {
    "normalForm": "fforwm",
    "id": 37688,
    "translations": [ "forum" ],
    "plural": [ "fforymau" ],
    "gender": "m"
  },
  {
    "normalForm": "ffling",
    "id": 37690,
    "isCountable": false,
    "gender": "f"
  },
  {
    "normalForm": "fendwr",
    "id": 37706,
    "translations": [ "vendor" ],
    "plural": [ "fendwyr" ],
    "gender": "m"
  },
  {
    "normalForm": "ffoto",
    "id": 37743,
    "translations": [ "photo" ],
    "plural": [ "ffotos" ],
    "gender": "m"
  },
  {
    "normalForm": "fforddiadwyedd",
    "id": 37753,
    "translations": [ "affordability" ],
    "isCountable": false,
    "gender": "f"
  },
  {
    "normalForm": "fform",
    "id": 37774,
    "translations": [ "form" ],
    "plural": [ "fformau" ],
    "gender": "f"
  },
  {
    "normalForm": "fforc",
    "id": 37782,
    "translations": [ "fork" ],
    "plural": [ "ffyrc" ],
    "gender": "f"
  },
  {
    "normalForm": "fforest",
    "id": 37817,
    "translations": [ "forest" ],
    "plural": [ "fforestydd" ],
    "gender": "f"
  },
  {
    "normalForm": "ffrwd",
    "id": 37829,
    "translations": [ "torrent" ],
    "plural": [ "ffrydau", "ffrydiau" ],
    "gender": "m"
  },
  {
    "normalForm": "fileindra",
    "id": 37848,
    "translations": [ "villainy" ],
    "isCountable": false,
    "gender": "m"
  },
  {
    "normalForm": "ffars",
    "id": 37861,
    "translations": [ "farce" ],
    "plural": [ "ffarsau" ],
    "gender": "f"
  },
  {
    "normalForm": "fflamenco",
    "id": 37871,
    "translations": [ "flamenco" ],
    "isCountable": false,
    "gender": "mf"
  },
  {
    "normalForm": "filain",
    "id": 37889,
    "translations": [ "villain" ],
    "plural": [ "fileiniaid" ],
    "gender": "m"
  },
  {
    "normalForm": "ffrog",
    "id": 37923,
    "translations": [ "frock" ],
    "plural": [ "ffrogau", "ffrogiau", "ffrociau" ],
    "gender": "f"
  },
  {
    "normalForm": "ffanffer",
    "id": 37950,
    "translations": [ "fanfare" ],
    "isCountable": false,
    "gender": "mf"
  },
  {
    "normalForm": "ffyddlondeb",
    "id": 37994,
    "translations": [ "trust" ],
    "isCountable": false,
    "gender": "m"
  },
  {
    "normalForm": "ffair",
    "id": 38008,
    "translations": [ "fair" ],
    "plural": [ "ffeiriau" ],
    "gender": "f"
  },
  {
    "normalForm": "ffurflen",
    "id": 38020,
    "translations": [ "form" ],
    "plural": [ "ffurflenni" ],
    "gender": "f"
  },
  {
    "normalForm": "ffagl",
    "id": 38047,
    "translations": [ "blaze" ],
    "plural": [ "ffaglennau" ],
    "gender": "f"
  },
  {
    "normalForm": "ffril",
    "id": 38062,
    "translations": [ "little" ],
    "plural": [ "ffrilach" ],
    "gender": "m"
  },
  {
    "normalForm": "ffael",
    "id": 38092,
    "translations": [ "fail" ],
    "plural": [ "ffaelion" ],
    "gender": "mf"
  },
  {
    "normalForm": "ffafr",
    "id": 38104,
    "translations": [ "favour" ],
    "isCountable": false,
    "gender": "mf"
  },
  {
    "normalForm": "ffieiddiwch",
    "id": 38115,
    "translations": [ "abomination" ],
    "isCountable": false,
    "gender": "m"
  },
  {
    "normalForm": "ffoadur",
    "id": 38150,
    "translations": [ "fugitive" ],
    "plural": [ "ffoaduresau", "ffoaduriaid" ],
    "gender": "m"
  },
  {
    "normalForm": "fforddfraint",
    "id": 38152,
    "translations": [ "right of way" ],
    "isCountable": false,
    "gender": "mf"
  },
  {
    "normalForm": "ffased",
    "id": 38217,
    "translations": [ "facet" ],
    "isCountable": false,
    "gender": "m"
  },
  {
    "normalForm": "ffroenell",
    "id": 38218,
    "translations": [ "nozzle" ],
    "plural": [ "ffroenellau" ],
    "gender": "f"
  },
  {
    "normalForm": "ffwbar",
    "id": 38270,
    "translations": [ "foobar" ],
    "plural": [ "ffwbariau" ],
    "gender": "m"
  },
  {
    "normalForm": "ffracio",
    "id": 38298,
    "translations": [ "ffracking" ],
    "isCountable": false,
    "gender": "m"
  },
  {
    "normalForm": "ffawd",
    "id": 38406,
    "translations": [ "fate" ],
    "plural": [ "ffodion" ],
    "gender": "mf"
  },
  {
    "normalForm": "ffawt",
    "id": 38416,
    "translations": [ "fault" ],
    "isCountable": false,
    "gender": "mf"
  },
  {
    "normalForm": "ffunud",
    "id": 38477,
    "translations": [ "form" ],
    "isCountable": false,
    "gender": "m"
  },
  {
    "normalForm": "ffwndamentaliaeth",
    "id": 38521,
    "translations": [ "fundamentalism" ],
    "isCountable": false,
    "gender": "f"
  },
  {
    "normalForm": "ffrwythlondeb",
    "id": 38607,
    "translations": [ "plenty" ],
    "isCountable": false,
    "gender": "m"
  },
  {
    "normalForm": "fila",
    "id": 38641,
    "translations": [ "villa" ],
    "plural": [ "filas" ],
    "gender": "mf"
  },
  {
    "normalForm": "ffasiwn",
    "id": 38685,
    "translations": [ "fashion" ],
    "plural": [ "ffasiynau" ],
    "gender": "m"
  },
  {
    "normalForm": "ffatri",
    "id": 38692,
    "translations": [ "factory" ],
    "plural": [ "ffatrïoedd", "ffatrioedd" ],
    "gender": "f"
  },
  {
    "normalForm": "ffacs",
    "id": 38771,
    "translations": [ "fax" ],
    "plural": [ "ffacsys" ],
    "gender": "m"
  },
  {
    "normalForm": "ffret",
    "id": 38781,
    "translations": [ "fret" ],
    "isCountable": false,
    "gender": "m"
  },
  {
    "normalForm": "ffesant",
    "id": 38789,
    "translations": [ "pheasant" ],
    "plural": [ "ffesantod" ],
    "gender": "mf"
  },
  {
    "normalForm": "fisa",
    "id": 38827,
    "translations": [ "visa" ],
    "plural": [ "fisas" ],
    "gender": "mf"
  },
  {
    "normalForm": "ffracsiwn pendrwm",
    "id": 38841,
    "translations": [ "improper fraction" ],
    "plural": [ "ffracsiynau pendrwm" ],
    "gender": "m"
  },
  {
    "normalForm": "ffradach",
    "id": 38844,
    "translations": [ "mess" ],
    "isCountable": false,
    "gender": "m"
  },
  {
    "normalForm": "ffrae",
    "id": 38852,
    "translations": [ "quarrel" ],
    "plural": [ "ffraeau" ],
    "gender": "f"
  },
  {
    "normalForm": "ffrau",
    "id": 38865,
    "translations": [ "stream" ],
    "isCountable": false,
    "gender": "mf"
  },
  {
    "normalForm": "ffolio",
    "id": 38958,
    "translations": [ "folio" ],
    "plural": [ "ffolios" ],
    "gender": "f"
  },
  {
    "normalForm": "ffarwel",
    "id": 38988,
    "translations": [ "farewell" ],
    "isCountable": false,
    "gender": "f"
  },
  {
    "normalForm": "ffisiotherapi",
    "id": 39013,
    "translations": [ "physiotherapy" ],
    "isCountable": false,
    "gender": "m"
  },
  {
    "normalForm": "ffolen",
    "id": 39029,
    "translations": [ "buttock" ],
    "plural": [ "ffolennau" ],
    "gender": "f"
  },
  {
    "normalForm": "ffonem",
    "id": 39086,
    "translations": [ "phoneme" ],
    "plural": [ "ffonemau" ],
    "gender": "f"
  },
  {
    "normalForm": "ffoneg",
    "id": 39087,
    "translations": [ "phonics" ],
    "isCountable": false,
    "gender": "f"
  },
  {
    "normalForm": "ffromedd",
    "id": 39164,
    "translations": [ "anger" ],
    "isCountable": false,
    "gender": "m"
  },
  {
    "normalForm": "ffêr",
    "id": 39311,
    "translations": [ "ankle" ],
    "plural": [ "fferau" ],
    "gender": "mf"
  },
  {
    "normalForm": "ffracsiwn",
    "id": 39320,
    "translations": [ "fraction" ],
    "plural": [ "ffracsiynau" ],
    "gender": "m"
  },
  {
    "normalForm": "ffon fesur",
    "id": 39383,
    "translations": [ "ruler" ],
    "plural": [ "ffyn mesur" ],
    "gender": "f"
  },
  {
    "normalForm": "ffynnon",
    "id": 39456,
    "translations": [ "spring" ],
    "plural": [ "ffynhonnau" ],
    "gender": "f"
  },
  {
    "normalForm": "ffôm",
    "id": 39469,
    "translations": [ "foam" ],
    "isCountable": false,
    "gender": "m"
  },
  {
    "normalForm": "ffenomenoleg",
    "id": 39479,
    "translations": [ "phenomenology" ],
    "isCountable": false,
    "gender": "f"
  },
  {
    "normalForm": "falans",
    "id": 39481,
    "translations": [ "valance" ],
    "isCountable": false,
    "gender": "mf"
  },
  {
    "normalForm": "folcano",
    "id": 39485,
    "translations": [ "volcano" ],
    "plural": [ "folcanos" ],
    "gender": "m"
  },
  {
    "normalForm": "ffeminydd",
    "id": 39503,
    "translations": [ "feminist" ],
    "plural": [ "ffeminyddesau" ],
    "gender": "m"
  },
  {
    "normalForm": "fflagen",
    "id": 39557,
    "translations": [ "bottle" ],
    "isCountable": false,
    "gender": "f"
  },
  {
    "normalForm": "ffarier",
    "id": 39558,
    "translations": [ "farrier" ],
    "isCountable": false,
    "gender": "m"
  },
  {
    "normalForm": "ffwdan",
    "id": 39651,
    "translations": [ "fuss" ],
    "isCountable": false,
    "gender": "f"
  },
  {
    "normalForm": "fflwcs",
    "id": 39737,
    "translations": [ "flatfish" ],
    "plural": [ "fflwcs" ],
    "gender": "m"
  },
  {
    "normalForm": "fanila",
    "id": 39745,
    "translations": [ "pod" ],
    "isCountable": false,
    "gender": "mf"
  },
  {
    "normalForm": "ffantasi",
    "id": 39835,
    "translations": [ "fantasy" ],
    "plural": [ "ffantasiau", "ffantasïau" ],
    "gender": "f"
  },
  {
    "normalForm": "ffenest",
    "id": 39865,
    "translations": [ "window" ],
    "isCountable": false,
    "gender": "f"
  },
  {
    "normalForm": "ffiligri",
    "id": 39873,
    "translations": [ "filigree" ],
    "isCountable": false,
    "gender": "m"
  },
  {
    "normalForm": "fferylliaeth",
    "id": 40041,
    "translations": [ "chemistry" ],
    "isCountable": false,
    "gender": "mf"
  },
  {
    "normalForm": "fflapjac",
    "id": 40057,
    "translations": [ "flapjack" ],
    "plural": [ "fflapjacs" ],
    "gender": "mf"
  },
  {
    "normalForm": "fioled",
    "id": 40114,
    "translations": [ "violet" ],
    "plural": [ "fioledau" ],
    "gender": "f"
  },
  {
    "normalForm": "ffurfweddi",
    "id": 40138,
    "translations": [ "liturgy" ],
    "plural": [ "ffurfweddïau" ],
    "gender": "f"
  },
  {
    "normalForm": "ffactorial",
    "id": 40189,
    "translations": [ "factorial" ],
    "plural": [ "ffactorialau" ],
    "gender": "m"
  },
  {
    "normalForm": "fagddu",
    "id": 40210,
    "translations": [ "gloom" ],
    "isCountable": false,
    "gender": "f"
  },
  {
    "normalForm": "ffurfioldeb",
    "id": 40216,
    "translations": [ "formality" ],
    "isCountable": false,
    "gender": "m"
  },
  {
    "normalForm": "ffrwyn",
    "id": 40242,
    "translations": [ "bridle" ],
    "plural": [ "ffrwynau" ],
    "gender": "mf"
  },
  {
    "normalForm": "ffisiolegydd",
    "id": 40294,
    "translations": [ "physiologist" ],
    "plural": [ "ffisiolegyddion" ],
    "gender": "m"
  },
  {
    "normalForm": "fföedigaeth",
    "id": 40332,
    "translations": [ "flight" ],
    "isCountable": false,
    "gender": "mf"
  },
  {
    "normalForm": "ffrwst",
    "id": 40345,
    "translations": [ "rush" ],
    "isCountable": false,
    "gender": "m"
  }
]
