[
  {
    "normalForm": "llawr"
  },
  {
    "normalForm": "llew",
    "plural": ["llewod"]
  },
  {
    "normalForm": "llygad",
    "plural": ["llygaid"]
  },
  {
    "normalForm": "lludd",
    "id": 30007,
    "translations": [ "obstacle" ],
    "plural": [ "lluddiau" ],
    "gender": "m"
  },
  {
    "normalForm": "lluosogaeth",
    "id": 30035,
    "translations": [ "multiplicand" ],
    "isCountable": false,
    "gender": "f"
  },
  {
    "normalForm": "llysfab",
    "id": 30054,
    "translations": [ "step-son" ],
    "isCountable": false,
    "gender": "m"
  },
  {
    "normalForm": "lludw",
    "id": 30057,
    "translations": [ "ash" ],
    "plural": [ "lludw" ],
    "gender": "m"
  },
  {
    "normalForm": "llysfam",
    "id": 30061,
    "translations": [ "stepmother" ],
    "isCountable": false,
    "gender": "f"
  },
  {
    "normalForm": "llinell",
    "id": 30078,
    "translations": [ "line" ],
    "plural": [ "llinellau" ],
    "gender": "f"
  },
  {
    "normalForm": "llamhidydd",
    "id": 30099,
    "translations": [ "jumper" ],
    "plural": [ "llamidyddion" ],
    "gender": "m"
  },
  {
    "normalForm": "lilac",
    "id": 30134,
    "translations": [ "lilac" ],
    "isCountable": false,
    "gender": "mf"
  },
  {
    "normalForm": "llyfrwerthwr",
    "id": 30160,
    "translations": [ "bookseller" ],
    "plural": [ "llyfrwerthwyr" ],
    "gender": "m"
  },
  {
    "normalForm": "llefaryddiaeth",
    "id": 30186,
    "translations": [ "speech" ],
    "isCountable": false,
    "gender": "m"
  },
  {
    "normalForm": "llyngyr",
    "id": 30203,
    "translations": [ "tapeworm" ],
    "plural": [ "llyngyr", "llynger" ],
    "gender": "m"
  },
  {
    "normalForm": "llumanwr",
    "id": 30352,
    "translations": [ "ensign" ],
    "plural": [ "llumanwyr" ],
    "gender": "m"
  },
  {
    "normalForm": "llefarwr",
    "id": 30367,
    "translations": [ "speaker" ],
    "plural": [ "llefarwyr" ],
    "gender": "m"
  },
  {
    "normalForm": "lolyn",
    "id": 30384,
    "translations": [ "fool" ],
    "isCountable": false,
    "gender": "m"
  },
  {
    "normalForm": "llifddwr",
    "id": 30421,
    "translations": [ "flood" ],
    "plural": [ "llifddyfroedd" ],
    "gender": "m"
  },
  {
    "normalForm": "llongyfarchion",
    "id": 30443,
    "translations": [ "congratulation" ],
    "plural": [ "llongyfarchion" ],
    "gender": "m"
  },
  {
    "normalForm": "lwtsh",
    "id": 30448,
    "translations": [ "slop" ],
    "isCountable": false,
    "gender": "mf"
  },
  {
    "normalForm": "lluwchwynt",
    "id": 30558,
    "translations": [ "blizzard" ],
    "plural": [ "lluwchwyntoedd" ],
    "gender": "m"
  },
  {
    "normalForm": "lŵp",
    "id": 30562,
    "plural": [ "lwpiau" ],
    "gender": "m"
  },
  {
    "normalForm": "llawysgrifen",
    "id": 30625,
    "translations": [ "handwriting" ],
    "isCountable": false,
    "gender": "f"
  },
  {
    "normalForm": "llywodraeth",
    "id": 30653,
    "translations": [ "government" ],
    "plural": [ "llywodraethau" ],
    "gender": "f"
  },
  {
    "normalForm": "llifddor",
    "id": 30661,
    "translations": [ "sluice" ],
    "plural": [ "llifddorau" ],
    "gender": "mf"
  },
  {
    "normalForm": "llwyth",
    "id": 30737,
    "translations": [ "tribe" ],
    "plural": [ "llwythau", "llwythi" ],
    "gender": "m"
  },
  {
    "normalForm": "llys-daid",
    "id": 30756,
    "translations": [ "step-grandfather" ],
    "plural": [ "llys-deidiau", "llysdeidiau" ],
    "gender": "m"
  },
  {
    "normalForm": "lluoswm",
    "id": 30758,
    "translations": [ "product" ],
    "plural": [ "lluosymiau", "lluosymau" ],
    "gender": "m"
  },
  {
    "normalForm": "lleuad",
    "id": 30759,
    "translations": [ "moon" ],
    "plural": [ "lleuadau" ],
    "gender": "f"
  },
  {
    "normalForm": "llongyfarchiad",
    "id": 30815,
    "translations": [ "congratulation" ],
    "plural": [ "llongyfarchiadau" ],
    "gender": "m"
  },
  {
    "normalForm": "lleuen",
    "id": 30852,
    "translations": [ "louse" ],
    "plural": [ "llau" ],
    "gender": "f"
  },
  {
    "normalForm": "lobi",
    "id": 30939,
    "translations": [ "lobby" ],
    "isCountable": false,
    "gender": "mf"
  },
  {
    "normalForm": "luned",
    "id": 30957,
    "translations": [ "linnet" ],
    "isCountable": false,
    "gender": "f"
  },
  {
    "normalForm": "llwydni",
    "id": 30958,
    "translations": [ "mouldiness" ],
    "isCountable": false,
    "gender": "m"
  },
  {
    "normalForm": "lapél",
    "id": 30978,
    "translations": [ "lapel" ],
    "plural": [ "lapelau" ],
    "gender": "f"
  },
  {
    "normalForm": "llyfrgi",
    "id": 30979,
    "translations": [ "coward" ],
    "isCountable": false,
    "gender": "m"
  },
  {
    "normalForm": "lleden",
    "id": 30980,
    "translations": [ "dab" ],
    "plural": [ "lledod" ],
    "gender": "mf"
  },
  {
    "normalForm": "llyfrothen",
    "id": 30992,
    "translations": [ "butterfish" ],
    "isCountable": false,
    "gender": "f"
  },
  {
    "normalForm": "libretydd",
    "id": 31008,
    "translations": [ "librettist" ],
    "plural": [ "libretwyr" ],
    "gender": "m"
  },
  {
    "normalForm": "logo",
    "id": 31011,
    "translations": [ "logos" ],
    "plural": [ "logos" ],
    "gender": "m"
  },
  {
    "normalForm": "llifiant",
    "id": 31052,
    "translations": [ "flowing" ],
    "plural": [ "llifiaint" ],
    "gender": "m"
  },
  {
    "normalForm": "lluosogai",
    "id": 31088,
    "translations": [ "multiplicand" ],
    "isCountable": false,
    "gender": "m"
  },
  {
    "normalForm": "llwydd",
    "id": 31091,
    "translations": [ "success" ],
    "plural": [ "llwyddon" ],
    "gender": "m"
  },
  {
    "normalForm": "llafurwr",
    "id": 31107,
    "translations": [ "worker" ],
    "isCountable": false,
    "gender": "m"
  },
  {
    "normalForm": "llwybr",
    "id": 31128,
    "translations": [ "path" ],
    "plural": [ "llwybrau" ],
    "gender": "m"
  },
  {
    "normalForm": "llygoden",
    "id": 31192,
    "translations": [ "mouse" ],
    "plural": [ "llygod" ],
    "gender": "f"
  },
  {
    "normalForm": "lord",
    "id": 31205,
    "translations": [ "lord" ],
    "plural": [ "lordiaid" ],
    "gender": "m"
  },
  {
    "normalForm": "landing",
    "id": 31241,
    "translations": [ "landing" ],
    "isCountable": false,
    "gender": "f"
  },
  {
    "normalForm": "llyfryn",
    "id": 31267,
    "translations": [ "booklet" ],
    "plural": [ "llyfrynnau" ],
    "gender": "m"
  },
  {
    "normalForm": "llacrwydd",
    "id": 31324,
    "translations": [ "weakness" ],
    "isCountable": false,
    "gender": "m"
  },
  {
    "normalForm": "lifftenant",
    "id": 31375,
    "translations": [ "lieutenant" ],
    "isCountable": false,
    "gender": "m"
  },
  {
    "normalForm": "llecyn",
    "id": 31382,
    "translations": [ "spot" ],
    "plural": [ "llecynnau" ],
    "gender": "m"
  },
  {
    "normalForm": "lolfa",
    "id": 31385,
    "translations": [ "lounge" ],
    "plural": [ "lolfeydd" ],
    "gender": "f"
  },
  {
    "normalForm": "llwgr",
    "id": 31408,
    "translations": [ "corruption" ],
    "plural": [ "llygrau" ],
    "gender": "m"
  },
  {
    "normalForm": "lincs",
    "id": 31536,
    "translations": [ "lynx" ],
    "plural": [ "lincsod" ],
    "gender": "m"
  },
  {
    "normalForm": "llys-nain",
    "id": 31545,
    "translations": [ "step-grandmother" ],
    "plural": [ "llys-neiniau", "llysneiniau" ],
    "gender": "f"
  },
  {
    "normalForm": "lawnt",
    "id": 31550,
    "translations": [ "lawn" ],
    "isCountable": false,
    "gender": "f"
  },
  {
    "normalForm": "llethr",
    "id": 31569,
    "translations": [ "slope" ],
    "plural": [ "llethrau" ],
    "gender": "f"
  },
  {
    "normalForm": "lletem",
    "id": 31629,
    "translations": [ "wedge" ],
    "isCountable": false,
    "gender": "f"
  },
  {
    "normalForm": "logisteg",
    "id": 31630,
    "translations": [ "logistics" ],
    "isCountable": false,
    "gender": "f"
  },
  {
    "normalForm": "lludded",
    "id": 31650,
    "translations": [ "fatigue" ],
    "plural": [ "lluddedau" ],
    "gender": "mf"
  },
  {
    "normalForm": "llawlyfr",
    "id": 31661,
    "translations": [ "handbook" ],
    "plural": [ "llawlyfrau" ],
    "gender": "m"
  },
  {
    "normalForm": "llwncdestun",
    "id": 31691,
    "translations": [ "toast" ],
    "isCountable": false,
    "gender": "m"
  },
  {
    "normalForm": "llety",
    "id": 31715,
    "translations": [ "lodging" ],
    "plural": [ "lletyau" ],
    "gender": "m"
  },
  {
    "normalForm": "llinys",
    "id": 31718,
    "translations": [ "stock" ],
    "isCountable": false,
    "gender": "m"
  },
  {
    "normalForm": "llinyn",
    "id": 31720,
    "translations": [ "string" ],
    "plural": [ "llinynnau" ],
    "gender": "m"
  },
  {
    "normalForm": "lediad",
    "id": 31779,
    "translations": [ "leading" ],
    "isCountable": false,
    "gender": "m"
  },
  {
    "normalForm": "lodnwm",
    "id": 31792,
    "translations": [ "laudanum" ],
    "isCountable": false,
    "gender": "m"
  },
  {
    "normalForm": "llên",
    "id": 31793,
    "translations": [ "literature" ],
    "plural": [ "llennau" ],
    "gender": "f"
  },
  {
    "normalForm": "lluosydd",
    "id": 31813,
    "translations": [ "multiplication" ],
    "plural": [ "lluosydd" ],
    "gender": "m"
  },
  {
    "normalForm": "llyfnder",
    "id": 31814,
    "translations": [ "ease" ],
    "isCountable": false,
    "gender": "m"
  },
  {
    "normalForm": "lloffion",
    "id": 31852,
    "translations": [ "picking" ],
    "plural": [ "lloffion" ],
    "gender": "m"
  },
  {
    "normalForm": "llestr",
    "id": 31909,
    "translations": [ "vessel" ],
    "plural": [ "llestri" ],
    "gender": "m"
  },
  {
    "normalForm": "llwyfan",
    "id": 31910,
    "translations": [ "stage" ],
    "plural": [ "llwyfannau" ],
    "gender": "m"
  },
  {
    "normalForm": "llafariad",
    "id": 31911,
    "translations": [ "vowel" ],
    "plural": [ "llafariaid" ],
    "gender": "f"
  },
  {
    "normalForm": "llanast",
    "id": 31912,
    "translations": [ "mess" ],
    "isCountable": false,
    "gender": "m"
  },
  {
    "normalForm": "lonciwr",
    "id": 31916,
    "translations": [ "jogger" ],
    "plural": [ "loncwyr" ],
    "gender": "m"
  },
  {
    "normalForm": "lladdwr",
    "id": 31920,
    "translations": [ "killer" ],
    "plural": [ "lladdwyr" ],
    "gender": "m"
  },
  {
    "normalForm": "llurig",
    "id": 31970,
    "translations": [ "cuirass" ],
    "isCountable": false,
    "gender": "mf"
  },
  {
    "normalForm": "llymru",
    "id": 31984,
    "translations": [ "flummery" ],
    "isCountable": false,
    "gender": "m"
  },
  {
    "normalForm": "legasi",
    "id": 31987,
    "translations": [ "legacy" ],
    "isCountable": false,
    "gender": "f"
  },
  {
    "normalForm": "llwch",
    "id": 32005,
    "translations": [ "dust" ],
    "plural": [ "llychau", "llychau" ],
    "gender": "m"
  },
  {
    "normalForm": "llwdn",
    "id": 32047,
    "translations": [ "foal" ],
    "isCountable": false,
    "gender": "m"
  },
  {
    "normalForm": "lledr",
    "id": 32073,
    "translations": [ "leather" ],
    "plural": [ "lledrnach", "lledrau", "lledrau y gwefusau" ],
    "gender": "m"
  },
  {
    "normalForm": "llech",
    "id": 32093,
    "translations": [ "hiding" ],
    "plural": [ "llechennau", "llechau" ],
    "gender": "mf"
  },
  {
    "normalForm": "lleiafrif",
    "id": 32110,
    "translations": [ "minority" ],
    "plural": [ "lleiafrifoedd", "lleiafrifau" ],
    "gender": "m"
  },
  {
    "normalForm": "llinell sylfaen",
    "id": 32118,
    "translations": [ "baseline" ],
    "plural": [ "llinellau sylfaen" ],
    "gender": "f"
  },
  {
    "normalForm": "llên-ysbeiliwr",
    "id": 32187,
    "translations": [ "plagiarist" ],
    "plural": [ "ysbeilwyr" ],
    "gender": "m"
  },
  {
    "normalForm": "lanlwythiad",
    "id": 32188,
    "translations": [ "upload" ],
    "plural": [ "lanlwythiadau" ],
    "gender": "m"
  },
  {
    "normalForm": "limbo",
    "id": 32239,
    "translations": [ "limbo" ],
    "isCountable": false,
    "gender": "m"
  },
  {
    "normalForm": "llinos",
    "id": 32264,
    "translations": [ "linnet" ],
    "plural": [ "llinosod" ],
    "gender": "f"
  },
  {
    "normalForm": "llefarydd",
    "id": 32265,
    "translations": [ "speaker" ],
    "plural": [ "llefaryddion" ],
    "gender": "m"
  },
  {
    "normalForm": "llafur",
    "id": 32297,
    "translations": [ "labour" ],
    "plural": [ "llafuriau" ],
    "gender": "m"
  },
  {
    "normalForm": "lladdfa",
    "id": 32300,
    "translations": [ "destruction" ],
    "plural": [ "lladdfâu" ],
    "gender": "f"
  },
  {
    "normalForm": "la",
    "id": 32305,
    "translations": [ "lah" ],
    "isCountable": false,
    "gender": "mf"
  },
  {
    "normalForm": "lleng",
    "id": 32312,
    "translations": [ "legion" ],
    "plural": [ "llengoedd" ],
    "gender": "f"
  },
  {
    "normalForm": "lledrithiwr",
    "id": 32324,
    "translations": [ "hypocrite" ],
    "isCountable": false,
    "gender": "m"
  },
  {
    "normalForm": "lw",
    "id": 32325,
    "translations": [ "loo" ],
    "isCountable": false,
    "gender": "m"
  },
  {
    "normalForm": "limit",
    "id": 32332,
    "isCountable": false,
    "gender": "m"
  },
  {
    "normalForm": "llysieuyn",
    "id": 32355,
    "translations": [ "vegetable" ],
    "plural": [ "llysiau" ],
    "gender": "m"
  },
  {
    "normalForm": "llygedyn",
    "id": 32407,
    "translations": [ "small amount" ],
    "isCountable": false,
    "gender": "m"
  },
  {
    "normalForm": "llysieuwr",
    "id": 32418,
    "translations": [ "botanist" ],
    "isCountable": false,
    "gender": "m"
  },
  {
    "normalForm": "llythrennedd",
    "id": 32425,
    "translations": [ "literacy" ],
    "isCountable": false,
    "gender": "m"
  },
  {
    "normalForm": "llysieueg",
    "id": 32426,
    "translations": [ "botany" ],
    "isCountable": false,
    "gender": "m"
  },
  {
    "normalForm": "llawan",
    "id": 32428,
    "translations": [ "little hand" ],
    "isCountable": false,
    "gender": "f"
  },
  {
    "normalForm": "lluosiad",
    "id": 32432,
    "translations": [ "increasing" ],
    "isCountable": false,
    "gender": "m"
  },
  {
    "normalForm": "llwydedd",
    "id": 32445,
    "translations": [ "greyness" ],
    "isCountable": false,
    "gender": "m"
  },
  {
    "normalForm": "llysieudy",
    "id": 32446,
    "translations": [ "greenhouse" ],
    "plural": [ "llysieudai" ],
    "gender": "m"
  },
  {
    "normalForm": "lluniant",
    "id": 32490,
    "translations": [ "formation" ],
    "plural": [ "lluniannau" ],
    "gender": "m"
  },
  {
    "normalForm": "llawes",
    "id": 32514,
    "translations": [ "sleeve" ],
    "plural": [ "llewys" ],
    "gender": "f"
  },
  {
    "normalForm": "llosg_mynydd",
    "id": 32521,
    "translations": [ "volcano" ],
    "isCountable": false,
    "gender": "m"
  },
  {
    "normalForm": "lleolnod",
    "id": 32547,
    "translations": [ "caret" ],
    "plural": [ "lleolnodau" ],
    "gender": "m"
  },
  {
    "normalForm": "llafar",
    "id": 32577,
    "translations": [ "type of speech" ],
    "plural": [ "lleferoedd" ],
    "gender": "m"
  },
  {
    "normalForm": "lobïwr",
    "id": 32578,
    "translations": [ "lobbyist" ],
    "plural": [ "lobiwragedd" ],
    "gender": "m"
  },
  {
    "normalForm": "llythrdy",
    "id": 32596,
    "translations": [ "post office" ],
    "plural": [ "llythrdai" ],
    "gender": "m"
  },
  {
    "normalForm": "llaswyr",
    "id": 32746,
    "translations": [ "freshness" ],
    "isCountable": false,
    "gender": "mf"
  },
  {
    "normalForm": "llygriaeth",
    "id": 32752,
    "translations": [ "corruption" ],
    "isCountable": false,
    "gender": "f"
  },
  {
    "normalForm": "letys",
    "id": 32767,
    "translations": [ "lettuce" ],
    "isCountable": false,
    "gender": "f"
  },
  {
    "normalForm": "llawban",
    "id": 32777,
    "translations": [ "saucepan" ],
    "isCountable": false,
    "gender": "f"
  },
  {
    "normalForm": "ladi",
    "id": 32804,
    "translations": [ "laddy" ],
    "isCountable": false,
    "gender": "f"
  },
  {
    "normalForm": "lolipop",
    "id": 32831,
    "translations": [ "lollipop" ],
    "plural": [ "lolipops" ],
    "gender": "m"
  },
  {
    "normalForm": "lafa",
    "id": 32834,
    "translations": [ "lava" ],
    "plural": [ "lafas" ],
    "gender": "m"
  },
  {
    "normalForm": "llaeth",
    "id": 32945,
    "translations": [ "milk" ],
    "plural": [ "llaethau" ],
    "gender": "m"
  },
  {
    "normalForm": "leder",
    "id": 33031,
    "translations": [ "leader" ],
    "isCountable": false,
    "gender": "m"
  },
  {
    "normalForm": "lamp",
    "id": 33040,
    "translations": [ "lamp" ],
    "plural": [ "lampau" ],
    "gender": "f"
  },
  {
    "normalForm": "lama",
    "id": 33053,
    "translations": [ "lama" ],
    "plural": [ "lamaod", "lamaod" ],
    "gender": "m"
  },
  {
    "normalForm": "lard",
    "id": 33114,
    "translations": [ "lard" ],
    "isCountable": false,
    "gender": "m"
  },
  {
    "normalForm": "llofruddiaeth",
    "id": 33137,
    "translations": [ "murder" ],
    "isCountable": false,
    "gender": "f"
  },
  {
    "normalForm": "lats",
    "id": 33143,
    "translations": [ "lath" ],
    "plural": [ "latys" ],
    "gender": "m"
  },
  {
    "normalForm": "llesteiriant",
    "id": 33169,
    "translations": [ "frustration" ],
    "plural": [ "llesteiriannau" ],
    "gender": "m"
  },
  {
    "normalForm": "llosgfynydd",
    "id": 33196,
    "translations": [ "volcano" ],
    "plural": [ "llosgfynyddoedd" ],
    "gender": "m"
  },
  {
    "normalForm": "lyngs",
    "id": 33206,
    "translations": [ "lung" ],
    "plural": [ "lyngs" ],
    "gender": "m"
  },
  {
    "normalForm": "llythyr cysur",
    "id": 33225,
    "translations": [ "letter of comfort" ],
    "plural": [ "llythyrau cysur" ],
    "gender": "m"
  },
  {
    "normalForm": "llygad-dyst",
    "id": 33230,
    "translations": [ "eye-witness" ],
    "plural": [ "llygaid-dystion", "llygad-dystion" ],
    "gender": "mf"
  },
  {
    "normalForm": "llawryf",
    "id": 33272,
    "translations": [ "laurel" ],
    "isCountable": false,
    "gender": "mf"
  },
  {
    "normalForm": "llyfrnod",
    "id": 33273,
    "translations": [ "bookmark" ],
    "isCountable": false,
    "gender": "m"
  },
  {
    "normalForm": "llyfr",
    "id": 33312,
    "translations": [ "book" ],
    "plural": [ "llyfrau" ],
    "gender": "m"
  },
  {
    "normalForm": "llofnod",
    "id": 33324,
    "translations": [ "signature" ],
    "plural": [ "llofnodau" ],
    "gender": "m"
  },
  {
    "normalForm": "letus",
    "id": 33349,
    "translations": [ "lettuce" ],
    "plural": [ "letus" ],
    "gender": "m"
  },
  {
    "normalForm": "llofnodwr",
    "id": 33363,
    "translations": [ "signatory" ],
    "plural": [ "llofnodwyr" ],
    "gender": "m"
  },
  {
    "normalForm": "llysgenhadaeth",
    "id": 33377,
    "translations": [ "embassy" ],
    "isCountable": false,
    "gender": "f"
  },
  {
    "normalForm": "libido",
    "id": 33446,
    "translations": [ "libido" ],
    "isCountable": false,
    "gender": "m"
  },
  {
    "normalForm": "llymaid",
    "id": 33461,
    "translations": [ "sip" ],
    "plural": [ "llymeidiau" ],
    "gender": "m"
  },
  {
    "normalForm": "llyfrgellyddiaeth",
    "id": 33469,
    "translations": [ "librarianship" ],
    "isCountable": false,
    "gender": "f"
  },
  {
    "normalForm": "llinell glo",
    "id": 33484,
    "translations": [ "concluding line" ],
    "plural": [ "llinellau clo" ],
    "gender": "f"
  },
  {
    "normalForm": "llystad",
    "id": 33541,
    "translations": [ "stepfather" ],
    "isCountable": false,
    "gender": "m"
  },
  {
    "normalForm": "llysfrawd",
    "id": 33542,
    "translations": [ "stepbrother" ],
    "plural": [ "llysfrodyr" ],
    "gender": "m"
  },
  {
    "normalForm": "lleithder",
    "id": 33559,
    "translations": [ "liquid" ],
    "isCountable": false,
    "gender": "m"
  },
  {
    "normalForm": "lleoliad",
    "id": 33591,
    "translations": [ "location" ],
    "plural": [ "lleoliadau" ],
    "gender": "m"
  },
  {
    "normalForm": "llwgrwobraeth",
    "id": 33617,
    "translations": [ "bribing" ],
    "isCountable": false,
    "gender": "mf"
  },
  {
    "normalForm": "llunwedd",
    "id": 33623,
    "translations": [ "form" ],
    "plural": [ "llunweddau" ],
    "gender": "f"
  },
  {
    "normalForm": "llesyddiaeth",
    "id": 33644,
    "translations": [ "utilitarianism" ],
    "isCountable": false,
    "gender": "f"
  },
  {
    "normalForm": "llawiadur",
    "id": 33682,
    "translations": [ "hand-held" ],
    "plural": [ "llawiaduron", "llawiaduron" ],
    "gender": "m"
  },
  {
    "normalForm": "llygriad",
    "id": 33764,
    "translations": [ "infection" ],
    "isCountable": false,
    "gender": "m"
  },
  {
    "normalForm": "llwyf",
    "id": 33776,
    "translations": [ "platform" ],
    "plural": [ "llwyf" ],
    "gender": "m"
  },
  {
    "normalForm": "llwyn",
    "id": 33781,
    "translations": [ "bush" ],
    "isCountable": false,
    "gender": "m"
  },
  {
    "normalForm": "llathen",
    "id": 33797,
    "translations": [ "yard" ],
    "plural": [ "llathenni", "llathenigau" ],
    "gender": "m"
  },
  {
    "normalForm": "llofnaid",
    "id": 33833,
    "translations": [ "vault" ],
    "plural": [ "llofneidiau" ],
    "gender": "f"
  },
  {
    "normalForm": "llysgennad",
    "id": 33855,
    "translations": [ "ambassador" ],
    "plural": [ "llysgenhadon" ],
    "gender": "m"
  },
  {
    "normalForm": "londrét",
    "id": 33912,
    "translations": [ "launderette" ],
    "plural": [ "londreti" ],
    "gender": "f"
  },
  {
    "normalForm": "lletygarwch",
    "id": 33916,
    "translations": [ "hospitality" ],
    "isCountable": false,
    "gender": "m"
  },
  {
    "normalForm": "llygredigaeth",
    "id": 33961,
    "translations": [ "corruption" ],
    "isCountable": false,
    "gender": "mf"
  },
  {
    "normalForm": "lager",
    "id": 33965,
    "translations": [ "lager" ],
    "isCountable": false,
    "gender": "m"
  },
  {
    "normalForm": "llonder",
    "id": 34016,
    "translations": [ "joy" ],
    "plural": [ "llonderau" ],
    "gender": "m"
  },
  {
    "normalForm": "llyfryddiaeth ddethol",
    "id": 34134,
    "translations": [ "select bibliography" ],
    "plural": [ "llyfryddiaethau dethol" ],
    "gender": "f"
  },
  {
    "normalForm": "lwfans",
    "id": 34135,
    "translations": [ "permission" ],
    "plural": [ "lwfansau" ],
    "gender": "mf"
  },
  {
    "normalForm": "llywyddiaeth",
    "id": 34165,
    "translations": [ "government" ],
    "plural": [ "llywyddiaethau" ],
    "gender": "mf"
  },
  {
    "normalForm": "llythyrwr",
    "id": 34171,
    "translations": [ "correspondent" ],
    "plural": [ "llythyrwyr" ],
    "gender": "m"
  },
  {
    "normalForm": "llanwad",
    "id": 34175,
    "isCountable": false,
    "gender": "m"
  },
  {
    "normalForm": "lefel",
    "id": 34239,
    "translations": [ "level" ],
    "plural": [ "lefelau" ],
    "gender": "f"
  },
  {
    "normalForm": "llwyaid",
    "id": 34287,
    "translations": [ "spoonful" ],
    "plural": [ "llwyeidiau" ],
    "gender": "f"
  },
  {
    "normalForm": "llorwedd",
    "id": 34293,
    "translations": [ "horizontal" ],
    "plural": [ "llorweddau" ],
    "gender": "m"
  },
  {
    "normalForm": "locer",
    "id": 34302,
    "translations": [ "locker" ],
    "plural": [ "loceri" ],
    "gender": "mf"
  },
  {
    "normalForm": "llafaredd",
    "id": 34335,
    "translations": [ "speech" ],
    "isCountable": false,
    "gender": "mf"
  },
  {
    "normalForm": "llaethai",
    "id": 34360,
    "translations": [ "beggar of milk" ],
    "plural": [ "llaetheiod" ],
    "gender": "mf"
  },
  {
    "normalForm": "lluosiaeth",
    "id": 34370,
    "translations": [ "multiplication" ],
    "isCountable": false,
    "gender": "f"
  },
  {
    "normalForm": "llaethdy",
    "id": 34443,
    "translations": [ "dairy" ],
    "plural": [ "llaethdai" ],
    "gender": "m"
  },
  {
    "normalForm": "litwrgi",
    "id": 34475,
    "translations": [ "liturgy" ],
    "isCountable": false,
    "gender": "mf"
  },
  {
    "normalForm": "llifeiriant",
    "id": 34524,
    "translations": [ "flowing" ],
    "plural": [ "llifeiriantau" ],
    "gender": "m"
  },
  {
    "normalForm": "llatai",
    "id": 34545,
    "translations": [ "procurer" ],
    "isCountable": false,
    "gender": "mf"
  },
  {
    "normalForm": "landledi",
    "id": 34565,
    "translations": [ "landlady" ],
    "plural": [ "landledis" ],
    "gender": "f"
  },
  {
    "normalForm": "llinell doredig",
    "id": 34588,
    "translations": [ "dotted line" ],
    "plural": [ "llinellau toredig" ],
    "gender": "f"
  },
  {
    "normalForm": "llesgedd",
    "id": 34623,
    "translations": [ "weakness" ],
    "plural": [ "llesgeddau" ],
    "gender": "mf"
  },
  {
    "normalForm": "llewych",
    "id": 34650,
    "isCountable": false,
    "gender": "m"
  },
  {
    "normalForm": "llosgach",
    "id": 34659,
    "isCountable": false,
    "gender": "m"
  },
  {
    "normalForm": "lluman",
    "id": 34661,
    "translations": [ "banner" ],
    "plural": [ "llumanau" ],
    "gender": "mf"
  },
  {
    "normalForm": "llafurwaith",
    "id": 34673,
    "translations": [ "labour" ],
    "isCountable": false,
    "gender": "m"
  },
  {
    "normalForm": "llabed",
    "id": 34702,
    "translations": [ "lappet" ],
    "isCountable": false,
    "gender": "mf"
  },
  {
    "normalForm": "llyfrgellwr",
    "id": 34704,
    "translations": [ "librarian" ],
    "plural": [ "llyfrgellwyr" ],
    "gender": "m"
  },
  {
    "normalForm": "llencyndod",
    "id": 34713,
    "translations": [ "youth" ],
    "isCountable": false,
    "gender": "m"
  },
  {
    "normalForm": "llenyddoldeb",
    "id": 34797,
    "translations": [ "literariness" ],
    "isCountable": false,
    "gender": "m"
  },
  {
    "normalForm": "llith",
    "id": 34827,
    "translations": [ "chapter" ],
    "plural": [ "llithoedd" ],
    "gender": "mf"
  },
  {
    "normalForm": "llewyrch",
    "id": 34850,
    "plural": [ "llewyrchoedd" ],
    "gender": "m"
  },
  {
    "normalForm": "losen",
    "id": 34949,
    "translations": [ "sweet" ],
    "plural": [ "losin" ],
    "gender": "f"
  },
  {
    "normalForm": "lamplen",
    "id": 34956,
    "translations": [ "lampshade" ],
    "plural": [ "lamplenni" ],
    "gender": "f"
  },
  {
    "normalForm": "llysenw",
    "id": 35015,
    "translations": [ "nickname" ],
    "isCountable": false,
    "gender": "m"
  },
  {
    "normalForm": "llymder",
    "id": 35066,
    "translations": [ "poverty" ],
    "plural": [ "llymderau" ],
    "gender": "m"
  },
  {
    "normalForm": "llythyren",
    "id": 35070,
    "translations": [ "letter" ],
    "plural": [ "llythyrennau", "llythrennau" ],
    "gender": "f"
  },
  {
    "normalForm": "llynges",
    "id": 35093,
    "translations": [ "navy" ],
    "plural": [ "llyngesau" ],
    "gender": "f"
  },
  {
    "normalForm": "lejend",
    "id": 35130,
    "translations": [ "legend" ],
    "isCountable": false,
    "gender": "f"
  },
  {
    "normalForm": "llwydrew",
    "id": 35131,
    "translations": [ "rime" ],
    "isCountable": false,
    "gender": "m"
  },
  {
    "normalForm": "llythyr",
    "id": 35151,
    "translations": [ "letter" ],
    "plural": [ "llythyrau", "llythyron" ],
    "gender": "m"
  },
  {
    "normalForm": "lafant",
    "id": 35159,
    "translations": [ "lavender" ],
    "isCountable": false,
    "gender": "m"
  },
  {
    "normalForm": "llwgrwobr",
    "id": 35166,
    "translations": [ "bribe" ],
    "plural": [ "llwgrwobrau" ],
    "gender": "m"
  },
  {
    "normalForm": "lawrlwythiad",
    "id": 35191,
    "plural": [ "lawrlwythiadau" ],
    "gender": "m"
  },
  {
    "normalForm": "llenor",
    "id": 35201,
    "translations": [ "litterateur" ],
    "plural": [ "llenorion", "llenoresau" ],
    "gender": "m"
  },
  {
    "normalForm": "leotard",
    "id": 35218,
    "translations": [ "leotard" ],
    "plural": [ "leotardau" ],
    "gender": "mf"
  },
  {
    "normalForm": "lleiandy",
    "id": 35222,
    "translations": [ "nunnery" ],
    "isCountable": false,
    "gender": "m"
  },
  {
    "normalForm": "lorri",
    "id": 35232,
    "translations": [ "lorry" ],
    "plural": [ "lorïau" ],
    "gender": "f"
  },
  {
    "normalForm": "lein",
    "id": 35312,
    "translations": [ "line" ],
    "plural": [ "leins", "leiniau" ],
    "gender": "f"
  },
  {
    "normalForm": "leim",
    "id": 35314,
    "translations": [ "lime" ],
    "isCountable": false,
    "gender": "mf"
  },
  {
    "normalForm": "llusern",
    "id": 35334,
    "translations": [ "lantern" ],
    "isCountable": false,
    "gender": "f"
  },
  {
    "normalForm": "llwyfaniad",
    "id": 35377,
    "translations": [ "staging" ],
    "plural": [ "llwyfaniadau" ],
    "gender": "m"
  },
  {
    "normalForm": "lens",
    "id": 35379,
    "translations": [ "len" ],
    "isCountable": false,
    "gender": "mf"
  },
  {
    "normalForm": "lletchwithdod",
    "id": 35434,
    "translations": [ "awkwardness" ],
    "isCountable": false,
    "gender": "m"
  },
  {
    "normalForm": "lletwad",
    "id": 35474,
    "translations": [ "ladle" ],
    "isCountable": false,
    "gender": "f"
  },
  {
    "normalForm": "lab",
    "id": 35487,
    "plural": [ "labiau", "labiau" ],
    "gender": "mf"
  },
  {
    "normalForm": "llewpard",
    "id": 35573,
    "translations": [ "leopard" ],
    "isCountable": false,
    "gender": "m"
  },
  {
    "normalForm": "llafarogrwydd",
    "id": 35590,
    "translations": [ "vocality" ],
    "isCountable": false,
    "gender": "m"
  },
  {
    "normalForm": "lîgs",
    "id": 35602,
    "translations": [ "league" ],
    "isCountable": false,
    "gender": "m"
  },
  {
    "normalForm": "libert",
    "id": 35643,
    "translations": [ "grazing" ],
    "isCountable": false,
    "gender": "mf"
  },
  {
    "normalForm": "lig",
    "id": 35654,
    "translations": [ "league" ],
    "isCountable": false,
    "gender": "f"
  },
  {
    "normalForm": "llygaeron",
    "id": 35668,
    "translations": [ "cranberry" ],
    "plural": [ "llygeirion" ],
    "gender": "m"
  },
  {
    "normalForm": "lifrai",
    "id": 35674,
    "translations": [ "livery" ],
    "isCountable": false,
    "gender": "mf"
  },
  {
    "normalForm": "lluarth",
    "id": 35696,
    "translations": [ "military camp" ],
    "isCountable": false,
    "gender": "mf"
  },
  {
    "normalForm": "lipstic",
    "id": 35708,
    "translations": [ "lipstick" ],
    "isCountable": false,
    "gender": "m"
  },
  {
    "normalForm": "lle",
    "id": 35710,
    "translations": [ "place" ],
    "plural": [ "lleoedd", "llefydd" ],
    "gender": "m"
  },
  {
    "normalForm": "lli",
    "id": 35715,
    "translations": [ "flood" ],
    "isCountable": false,
    "gender": "m"
  },
  {
    "normalForm": "llo",
    "id": 35721,
    "translations": [ "calf" ],
    "plural": [ "lloau", "lloi" ],
    "gender": "m"
  },
  {
    "normalForm": "llu",
    "id": 35729,
    "translations": [ "host" ],
    "plural": [ "lluoedd" ],
    "gender": "m"
  },
  {
    "normalForm": "llw",
    "id": 35731,
    "translations": [ "oath" ],
    "isCountable": false,
    "gender": "mf"
  },
  {
    "normalForm": "lob",
    "id": 35782,
    "translations": [ "lob" ],
    "plural": [ "lobiaid" ],
    "gender": "m"
  },
  {
    "normalForm": "lol",
    "id": 35791,
    "translations": [ "nonsense" ],
    "plural": [ "lolos" ],
    "gender": "f"
  },
  {
    "normalForm": "lot",
    "id": 35795,
    "translations": [ "lot" ],
    "plural": [ "lotiau" ],
    "gender": "f"
  },
  {
    "normalForm": "low",
    "id": 35797,
    "translations": [ "slap" ],
    "isCountable": false,
    "gender": "f"
  },
  {
    "normalForm": "llawnder",
    "id": 35904,
    "translations": [ "abundance" ],
    "plural": [ "llawnderau" ],
    "gender": "m"
  },
  {
    "normalForm": "llunydd",
    "id": 35912,
    "translations": [ "renderer" ],
    "plural": [ "llunyddion" ],
    "gender": "m"
  },
  {
    "normalForm": "lluched",
    "id": 35938,
    "translations": [ "lightning flash" ],
    "isCountable": false,
    "gender": "f"
  },
  {
    "normalForm": "lwc",
    "id": 35943,
    "translations": [ "luck" ],
    "isCountable": false,
    "gender": "m"
  },
  {
    "normalForm": "locws",
    "id": 35944,
    "translations": [ "locus" ],
    "plural": [ "locysau" ],
    "gender": "m"
  },
  {
    "normalForm": "lwmp",
    "id": 35958,
    "translations": [ "lump" ],
    "plural": [ "lympau", "lympiau" ],
    "gender": "m"
  },
  {
    "normalForm": "llipryn",
    "id": 35964,
    "translations": [ "flabby" ],
    "isCountable": false,
    "gender": "m"
  },
  {
    "normalForm": "lwli",
    "id": 35976,
    "translations": [ "lullaby" ],
    "isCountable": false,
    "gender": "f"
  },
  {
    "normalForm": "locust",
    "id": 36022,
    "translations": [ "locust" ],
    "plural": [ "locustiaid" ],
    "gender": "m"
  },
  {
    "normalForm": "llencyn",
    "id": 36023,
    "translations": [ "youth" ],
    "isCountable": false,
    "gender": "m"
  },
  {
    "normalForm": "lluchio",
    "id": 36029,
    "translations": [ "throwing" ],
    "isCountable": false,
    "gender": "m"
  },
  {
    "normalForm": "legat",
    "id": 36048,
    "translations": [ "ambassador" ],
    "isCountable": false,
    "gender": "m"
  },
  {
    "normalForm": "lemonêd",
    "id": 36108,
    "translations": [ "lemonade" ],
    "isCountable": false,
    "gender": "m"
  },
  {
    "normalForm": "lodes",
    "id": 36153,
    "translations": [ "girl" ],
    "plural": [ "lodesi" ],
    "gender": "f"
  },
  {
    "normalForm": "lle degol",
    "id": 36160,
    "translations": [ "decimal place" ],
    "plural": [ "lleoedd degol" ],
    "gender": "m"
  },
  {
    "normalForm": "lewcemia",
    "id": 36185,
    "translations": [ "leukaemia" ],
    "isCountable": false,
    "gender": "m"
  },
  {
    "normalForm": "lluddiant",
    "id": 36223,
    "translations": [ "hindrance" ],
    "plural": [ "lluddiannau" ],
    "gender": "m"
  },
  {
    "normalForm": "llechfaen",
    "id": 36248,
    "translations": [ "flag" ],
    "plural": [ "llechfeini" ],
    "gender": "mf"
  },
  {
    "normalForm": "llenyddiaeth",
    "id": 36275,
    "translations": [ "literature" ],
    "plural": [ "llenyddiaethau" ],
    "gender": "f"
  },
  {
    "normalForm": "llinell grom",
    "id": 36289,
    "translations": [ "curved line" ],
    "plural": [ "llinellau crwm" ],
    "gender": "f"
  },
  {
    "normalForm": "llochwr",
    "id": 36362,
    "translations": [ "protector" ],
    "isCountable": false,
    "gender": "m"
  },
  {
    "normalForm": "loteri",
    "id": 36376,
    "translations": [ "lottery" ],
    "plural": [ "loteris" ],
    "gender": "m"
  },
  {
    "normalForm": "llyfan",
    "id": 36394,
    "translations": [ "string" ],
    "plural": [ "llyfanau" ],
    "gender": "mf"
  },
  {
    "normalForm": "lotri",
    "id": 36451,
    "translations": [ "lottery" ],
    "plural": [ "lotris" ],
    "gender": "f"
  },
  {
    "normalForm": "lluniad",
    "id": 36465,
    "translations": [ "drawing" ],
    "plural": [ "lluniadau" ],
    "gender": "m"
  },
  {
    "normalForm": "llaethyddiaeth",
    "id": 36522,
    "translations": [ "dairying" ],
    "isCountable": false,
    "gender": "f"
  },
  {
    "normalForm": "llifolau",
    "id": 36525,
    "translations": [ "floodlight" ],
    "plural": [ "llifoleuadau" ],
    "gender": "m"
  },
  {
    "normalForm": "llygredd",
    "id": 36536,
    "translations": [ "pollution" ],
    "plural": [ "llygreddau" ],
    "gender": "m"
  },
  {
    "normalForm": "llwyrymwrthodwr",
    "id": 36572,
    "translations": [ "teetotaller" ],
    "plural": [ "llwyrymwrthodwyr" ],
    "gender": "m"
  },
  {
    "normalForm": "lejen",
    "id": 36601,
    "translations": [ "ledge" ],
    "isCountable": false,
    "gender": "f"
  },
  {
    "normalForm": "lloches",
    "id": 36675,
    "translations": [ "refuge" ],
    "plural": [ "llochesau" ],
    "gender": "f"
  },
  {
    "normalForm": "llywodraethwr",
    "id": 36679,
    "translations": [ "governor" ],
    "plural": [ "llywodraethwragedd", "llywodraethwyr" ],
    "gender": "m"
  },
  {
    "normalForm": "llawfeddyg",
    "id": 36681,
    "translations": [ "surgeon" ],
    "isCountable": false,
    "gender": "m"
  },
  {
    "normalForm": "lledneisrwydd",
    "id": 36707,
    "translations": [ "kindness" ],
    "isCountable": false,
    "gender": "m"
  },
  {
    "normalForm": "lleolydd",
    "id": 36723,
    "translations": [ "locator" ],
    "plural": [ "lleolyddion" ],
    "gender": "m"
  },
  {
    "normalForm": "lloer",
    "id": 36838,
    "translations": [ "moonq" ],
    "isCountable": false,
    "gender": "f"
  },
  {
    "normalForm": "llygad y dydd",
    "id": 36858,
    "translations": [ "daisy" ],
    "plural": [ "llygaid y dydd" ],
    "gender": "m"
  },
  {
    "normalForm": "llawdriniaeth",
    "id": 36859,
    "translations": [ "surgery" ],
    "plural": [ "llawdriniaethau" ],
    "gender": "f"
  },
  {
    "normalForm": "lluosnomial",
    "id": 36867,
    "translations": [ "multinomial" ],
    "plural": [ "lluosnomialau" ],
    "gender": "m"
  },
  {
    "normalForm": "lled breichiau",
    "id": 36868,
    "translations": [ "armspan" ],
    "isCountable": false,
    "gender": "m"
  },
  {
    "normalForm": "llinborthiad",
    "id": 36879,
    "translations": [ "linefeed" ],
    "plural": [ "llinborthiadau" ],
    "gender": "m"
  },
  {
    "normalForm": "lluniwr",
    "id": 36885,
    "translations": [ "former" ],
    "plural": [ "llunwyr" ],
    "gender": "m"
  },
  {
    "normalForm": "llongwr",
    "id": 36904,
    "translations": [ "seaman" ],
    "isCountable": false,
    "gender": "m"
  },
  {
    "normalForm": "llofrudd",
    "id": 36912,
    "translations": [ "murderer" ],
    "plural": [ "llofruddiaid" ],
    "gender": "m"
  },
  {
    "normalForm": "llofruddiad",
    "id": 36915,
    "translations": [ "murdering" ],
    "isCountable": false,
    "gender": "m"
  },
  {
    "normalForm": "llys-riant",
    "id": 36944,
    "translations": [ "step-parent" ],
    "plural": [ "llysrieni", "llys-rieni" ],
    "gender": "m"
  },
  {
    "normalForm": "leisens",
    "id": 36970,
    "translations": [ "licence" ],
    "isCountable": false,
    "gender": "f"
  },
  {
    "normalForm": "llwynog",
    "id": 37010,
    "translations": [ "fox" ],
    "plural": [ "llwynogesau" ],
    "gender": "m"
  },
  {
    "normalForm": "lluosogrwydd",
    "id": 37020,
    "translations": [ "numerousness" ],
    "isCountable": false,
    "gender": "m"
  },
  {
    "normalForm": "llyfrgellydd",
    "id": 37034,
    "translations": [ "librarian" ],
    "isCountable": false,
    "gender": "m"
  },
  {
    "normalForm": "logarithm",
    "id": 37042,
    "translations": [ "logarithm" ],
    "plural": [ "logarithmau" ],
    "gender": "m"
  },
  {
    "normalForm": "lliwur",
    "id": 37090,
    "translations": [ "stain" ],
    "isCountable": false,
    "gender": "m"
  },
  {
    "normalForm": "lledrith",
    "id": 37091,
    "translations": [ "magic" ],
    "isCountable": false,
    "gender": "m"
  },
  {
    "normalForm": "lobsgows",
    "id": 37183,
    "translations": [ "lobscouse" ],
    "isCountable": false,
    "gender": "m"
  },
  {
    "normalForm": "llofruddiwr",
    "id": 37192,
    "translations": [ "murderer" ],
    "plural": [ "llofruddwyr" ],
    "gender": "m"
  },
  {
    "normalForm": "lyri",
    "id": 37257,
    "translations": [ "lorry" ],
    "isCountable": false,
    "gender": "f"
  },
  {
    "normalForm": "lluosrif",
    "id": 37276,
    "translations": [ "multiple" ],
    "plural": [ "lluosrifau" ],
    "gender": "m"
  },
  {
    "normalForm": "lluosain",
    "id": 37320,
    "translations": [ "diphthong" ],
    "plural": [ "lluoseiniaid" ],
    "gender": "f"
  },
  {
    "normalForm": "locsyn",
    "id": 37327,
    "translations": [ "beard" ],
    "plural": [ "locsys" ],
    "gender": "m"
  },
  {
    "normalForm": "legins",
    "id": 37335,
    "translations": [ "legging" ],
    "plural": [ "legins" ],
    "gender": "m"
  },
  {
    "normalForm": "llucheden",
    "id": 37355,
    "translations": [ "firework" ],
    "isCountable": false,
    "gender": "f"
  },
  {
    "normalForm": "llyffethair",
    "id": 37459,
    "translations": [ "fetter" ],
    "isCountable": false,
    "gender": "f"
  },
  {
    "normalForm": "leino",
    "id": 37465,
    "translations": [ "linoleum" ],
    "isCountable": false,
    "gender": "m"
  },
  {
    "normalForm": "lando",
    "id": 37470,
    "translations": [ "landau" ],
    "isCountable": false,
    "gender": "mf"
  },
  {
    "normalForm": "llyfr siec",
    "id": 37575,
    "translations": [ "chequebook" ],
    "plural": [ "llyfrau siec" ],
    "gender": "m"
  },
  {
    "normalForm": "lecsiwn",
    "id": 37729,
    "translations": [ "election" ],
    "isCountable": false,
    "gender": "f"
  },
  {
    "normalForm": "llaciad",
    "id": 37735,
    "translations": [ "slackening" ],
    "isCountable": false,
    "gender": "m"
  },
  {
    "normalForm": "linc",
    "id": 37749,
    "plural": [ "linciau" ],
    "gender": "f"
  },
  {
    "normalForm": "llawnwerth",
    "id": 37752,
    "translations": [ "par" ],
    "isCountable": false,
    "gender": "m"
  },
  {
    "normalForm": "llesmair",
    "id": 37777,
    "translations": [ "fit" ],
    "plural": [ "llesmeiriau" ],
    "gender": "m"
  },
  {
    "normalForm": "lastig",
    "id": 37779,
    "translations": [ "elastic" ],
    "isCountable": false,
    "gender": "m"
  },
  {
    "normalForm": "lleferydd",
    "id": 37783,
    "translations": [ "speech" ],
    "isCountable": false,
    "gender": "m"
  },
  {
    "normalForm": "labrwr",
    "id": 37784,
    "translations": [ "labourer" ],
    "plural": [ "labrwyr" ],
    "gender": "m"
  },
  {
    "normalForm": "lindys",
    "id": 37805,
    "translations": [ "cockatrice" ],
    "isCountable": false,
    "gender": "m"
  },
  {
    "normalForm": "leinin",
    "id": 37808,
    "translations": [ "lining" ],
    "isCountable": false,
    "gender": "m"
  },
  {
    "normalForm": "llofft",
    "id": 37813,
    "translations": [ "room" ],
    "plural": [ "llofftydd" ],
    "gender": "f"
  },
  {
    "normalForm": "latecs",
    "id": 37849,
    "translations": [ "latex" ],
    "isCountable": false,
    "gender": "m"
  },
  {
    "normalForm": "llestair",
    "id": 37873,
    "translations": [ "obstacle" ],
    "plural": [ "llesteiriau" ],
    "gender": "m"
  },
  {
    "normalForm": "litr",
    "id": 37878,
    "translations": [ "litre" ],
    "plural": [ "litrau" ],
    "gender": "m"
  },
  {
    "normalForm": "llinach",
    "id": 37908,
    "translations": [ "stock" ],
    "isCountable": false,
    "gender": "mf"
  },
  {
    "normalForm": "list",
    "id": 37912,
    "plural": [ "listiau" ],
    "gender": "f"
  },
  {
    "normalForm": "llyfrgell",
    "id": 37936,
    "translations": [ "library" ],
    "plural": [ "llyfrgelloedd" ],
    "gender": "m"
  },
  {
    "normalForm": "lactos",
    "id": 37941,
    "translations": [ "lactose" ],
    "isCountable": false,
    "gender": "m"
  },
  {
    "normalForm": "llyfryddiaeth",
    "id": 37948,
    "translations": [ "bibliography" ],
    "plural": [ "llyfryddiaethau" ],
    "gender": "f"
  },
  {
    "normalForm": "landlordiaeth",
    "id": 37967,
    "translations": [ "landlordism" ],
    "isCountable": false,
    "gender": "f"
  },
  {
    "normalForm": "llithrfa",
    "id": 38050,
    "translations": [ "slide" ],
    "plural": [ "llithrfaoedd" ],
    "gender": "f"
  },
  {
    "normalForm": "llithren",
    "id": 38087,
    "translations": [ "slide" ],
    "plural": [ "llithrennau" ],
    "gender": "f"
  },
  {
    "normalForm": "labrer",
    "id": 38133,
    "translations": [ "labourer" ],
    "plural": [ "labrers" ],
    "gender": "m"
  },
  {
    "normalForm": "llawysgrif",
    "id": 38201,
    "translations": [ "manuscript" ],
    "plural": [ "llawysgrifau" ],
    "gender": "f"
  },
  {
    "normalForm": "limrig",
    "id": 38216,
    "translations": [ "limerick" ],
    "plural": [ "limrigau" ],
    "gender": "m"
  },
  {
    "normalForm": "llongddrylliad",
    "id": 38244,
    "translations": [ "shipwreck" ],
    "isCountable": false,
    "gender": "m"
  },
  {
    "normalForm": "llithriad",
    "id": 38263,
    "translations": [ "slip" ],
    "isCountable": false,
    "gender": "m"
  },
  {
    "normalForm": "lòg",
    "id": 38273,
    "translations": [ "log" ],
    "plural": [ "logiau" ],
    "gender": "m"
  },
  {
    "normalForm": "lleian",
    "id": 38286,
    "translations": [ "nun" ],
    "plural": [ "lleianod" ],
    "gender": "mf"
  },
  {
    "normalForm": "llechgi",
    "id": 38297,
    "translations": [ "sneak" ],
    "isCountable": false,
    "gender": "m"
  },
  {
    "normalForm": "lôn",
    "id": 38323,
    "translations": [ "road" ],
    "plural": [ "lonydd" ],
    "gender": "f"
  },
  {
    "normalForm": "lleidr",
    "id": 38398,
    "translations": [ "thief" ],
    "plural": [ "lladron" ],
    "gender": "m"
  },
  {
    "normalForm": "llamwr",
    "id": 38413,
    "translations": [ "jumper" ],
    "isCountable": false,
    "gender": "m"
  },
  {
    "normalForm": "landrofer",
    "id": 38440,
    "translations": [ "landrover" ],
    "plural": [ "landrofers" ],
    "gender": "mf"
  },
  {
    "normalForm": "llawddryll",
    "id": 38463,
    "translations": [ "handgun" ],
    "isCountable": false,
    "gender": "mf"
  },
  {
    "normalForm": "landlord",
    "id": 38545,
    "translations": [ "landlord" ],
    "isCountable": false,
    "gender": "m"
  },
  {
    "normalForm": "lledaeniad",
    "id": 38549,
    "translations": [ "spread" ],
    "isCountable": false,
    "gender": "m"
  },
  {
    "normalForm": "lladdiad",
    "id": 38559,
    "plural": [ "lladdiadau" ],
    "gender": "m"
  },
  {
    "normalForm": "llinell ddrych",
    "id": 38646,
    "translations": [ "mirror line" ],
    "plural": [ "llinellau drych" ],
    "gender": "f"
  },
  {
    "normalForm": "linoliwm",
    "id": 38647,
    "translations": [ "linoleum" ],
    "isCountable": false,
    "gender": "m"
  },
  {
    "normalForm": "llais yn llefain yn y diffeithwch",
    "id": 38721,
    "translations": [ "a voice crying in the wilderness" ],
    "isCountable": false,
    "gender": "m"
  },
  {
    "normalForm": "lleygwr",
    "id": 38748,
    "translations": [ "layman" ],
    "isCountable": false,
    "gender": "m"
  },
  {
    "normalForm": "llithiadur",
    "id": 38768,
    "translations": [ "lectionary" ],
    "isCountable": false,
    "gender": "m"
  },
  {
    "normalForm": "lluwch",
    "id": 38824,
    "translations": [ "snow-drift" ],
    "isCountable": false,
    "gender": "m"
  },
  {
    "normalForm": "llidiart",
    "id": 38837,
    "translations": [ "gate" ],
    "isCountable": false,
    "gender": "mf"
  },
  {
    "normalForm": "llond",
    "id": 38881,
    "translations": [ "capacity" ],
    "plural": [ "lloneidau" ],
    "gender": "m"
  },
  {
    "normalForm": "llong",
    "id": 38888,
    "translations": [ "ship" ],
    "plural": [ "llongau" ],
    "gender": "f"
  },
  {
    "normalForm": "lifer",
    "id": 38894,
    "translations": [ "livre" ],
    "plural": [ "lifers", "liferau" ],
    "gender": "m"
  },
  {
    "normalForm": "lansiad",
    "id": 38918,
    "translations": [ "launch" ],
    "plural": [ "lansiadau" ],
    "gender": "m"
  },
  {
    "normalForm": "lifft",
    "id": 38947,
    "translations": [ "lift" ],
    "plural": [ "lifftiau" ],
    "gender": "m"
  },
  {
    "normalForm": "llithrydd",
    "id": 38978,
    "translations": [ "slider" ],
    "plural": [ "llithryddion" ],
    "gender": "m"
  },
  {
    "normalForm": "lletywr",
    "id": 39001,
    "translations": [ "host" ],
    "plural": [ "lletywragedd" ],
    "gender": "m"
  },
  {
    "normalForm": "lleiafswm",
    "id": 39018,
    "translations": [ "minimum" ],
    "plural": [ "lleiafsymiau" ],
    "gender": "m"
  },
  {
    "normalForm": "lleisydd",
    "id": 39047,
    "translations": [ "vocalist" ],
    "plural": [ "lleisyddion" ],
    "gender": "m"
  },
  {
    "normalForm": "laser",
    "id": 39160,
    "translations": [ "laser" ],
    "plural": [ "laserau" ],
    "gender": "mf"
  },
  {
    "normalForm": "label",
    "id": 39173,
    "translations": [ "label" ],
    "plural": [ "labeli", "labelau" ],
    "gender": "f"
  },
  {
    "normalForm": "llywydd",
    "id": 39203,
    "translations": [ "president" ],
    "plural": [ "llywyddion" ],
    "gender": "m"
  },
  {
    "normalForm": "llechwedd",
    "id": 39235,
    "translations": [ "hillside" ],
    "plural": [ "llechweddau" ],
    "gender": "m"
  },
  {
    "normalForm": "llarieiddiwch",
    "id": 39237,
    "translations": [ "meekness" ],
    "isCountable": false,
    "gender": "m"
  },
  {
    "normalForm": "lladrad",
    "id": 39251,
    "translations": [ "theft" ],
    "isCountable": false,
    "gender": "m"
  },
  {
    "normalForm": "llaw",
    "id": 39280,
    "translations": [ "hand" ],
    "plural": [ "dwylo", "llawiau" ],
    "gender": "f"
  },
  {
    "normalForm": "llac",
    "id": 39290,
    "translations": [ "gap" ],
    "plural": [ "llaciau" ],
    "gender": "m"
  },
  {
    "normalForm": "llad",
    "id": 39292,
    "translations": [ "liquor" ],
    "isCountable": false,
    "gender": "mf"
  },
  {
    "normalForm": "llifydd",
    "id": 39297,
    "translations": [ "fluid" ],
    "plural": [ "llifyddion" ],
    "gender": "m"
  },
  {
    "normalForm": "llam",
    "id": 39302,
    "translations": [ "leap" ],
    "plural": [ "llamau" ],
    "gender": "m"
  },
  {
    "normalForm": "llan",
    "id": 39304,
    "translations": [ "church" ],
    "plural": [ "llannau" ],
    "gender": "f"
  },
  {
    "normalForm": "llosgiad",
    "id": 39360,
    "plural": [ "llosgiadau" ],
    "gender": "m"
  },
  {
    "normalForm": "llawforwyn",
    "id": 39381,
    "translations": [ "maidservant" ],
    "isCountable": false,
    "gender": "f"
  },
  {
    "normalForm": "llef",
    "id": 39385,
    "isCountable": false,
    "gender": "mf"
  },
  {
    "normalForm": "llen",
    "id": 39390,
    "translations": [ "curtain" ],
    "plural": [ "llenigau", "llenni" ],
    "gender": "f"
  },
  {
    "normalForm": "libreto",
    "id": 39391,
    "translations": [ "libretto" ],
    "plural": [ "libreti" ],
    "gender": "m"
  },
  {
    "normalForm": "lles",
    "id": 39392,
    "translations": [ "benefit" ],
    "plural": [ "llesau", "llesoedd", "llesion" ],
    "gender": "m"
  },
  {
    "normalForm": "lled",
    "id": 39403,
    "translations": [ "breadth" ],
    "plural": [ "lledau", "lledau" ],
    "gender": "m"
  },
  {
    "normalForm": "lloeren",
    "id": 39412,
    "translations": [ "satellite" ],
    "plural": [ "lloerenni", "lloerennau" ],
    "gender": "f"
  },
  {
    "normalForm": "llanc",
    "id": 39451,
    "translations": [ "young man" ],
    "plural": [ "llanciau" ],
    "gender": "m"
  },
  {
    "normalForm": "llungopi",
    "id": 39457,
    "translations": [ "photocopy" ],
    "plural": [ "llungopiau", "llungopïau" ],
    "gender": "m"
  },
  {
    "normalForm": "lluosrif cyffredin lleiaf",
    "id": 39458,
    "translations": [ "lowest common denominator" ],
    "plural": [ "lluosrifau cyffredin lleiaf" ],
    "gender": "m"
  },
  {
    "normalForm": "llawenydd",
    "id": 39468,
    "translations": [ "gladness" ],
    "isCountable": false,
    "gender": "m"
  },
  {
    "normalForm": "llin",
    "id": 39471,
    "translations": [ "flax" ],
    "isCountable": false,
    "gender": "m"
  },
  {
    "normalForm": "lliw",
    "id": 39473,
    "translations": [ "colour" ],
    "plural": [ "lliwiau" ],
    "gender": "m"
  },
  {
    "normalForm": "llid",
    "id": 39486,
    "translations": [ "anger" ],
    "plural": [ "llidiau" ],
    "gender": "m"
  },
  {
    "normalForm": "llewyg",
    "id": 39492,
    "translations": [ "faint" ],
    "isCountable": false,
    "gender": "mf"
  },
  {
    "normalForm": "llif",
    "id": 39495,
    "translations": [ "flood" ],
    "plural": [ "llifoedd", "llifogydd", "llifiau" ],
    "gender": "f"
  },
  {
    "normalForm": "llefrith",
    "id": 39502,
    "translations": [ "milk" ],
    "isCountable": false,
    "gender": "m"
  },
  {
    "normalForm": "lleihad",
    "id": 39507,
    "isCountable": false,
    "gender": "m"
  },
  {
    "normalForm": "llwyddiant",
    "id": 39529,
    "translations": [ "successe" ],
    "plural": [ "llwyddiannau" ],
    "gender": "m"
  },
  {
    "normalForm": "larwm",
    "id": 39573,
    "translations": [ "alarm" ],
    "plural": [ "larymau" ],
    "gender": "m"
  },
  {
    "normalForm": "llath",
    "id": 39576,
    "translations": [ "yard" ],
    "plural": [ "llathau" ],
    "gender": "f"
  },
  {
    "normalForm": "llysnafedd",
    "id": 39585,
    "translations": [ "phlegm" ],
    "isCountable": false,
    "gender": "m"
  },
  {
    "normalForm": "limpin",
    "id": 39594,
    "translations": [ "linch-pin" ],
    "isCountable": false,
    "gender": "m"
  },
  {
    "normalForm": "llwythydd",
    "id": 39603,
    "translations": [ "loader" ],
    "plural": [ "llwythyddion" ],
    "gender": "m"
  },
  {
    "normalForm": "llos",
    "id": 39607,
    "translations": [ "bitumen" ],
    "isCountable": false,
    "gender": "m"
  },
  {
    "normalForm": "llawn",
    "id": 39609,
    "translations": [ "abundance" ],
    "isCountable": false,
    "gender": "m"
  },
  {
    "normalForm": "lloc",
    "id": 39616,
    "translations": [ "pen" ],
    "isCountable": false,
    "gender": "m"
  },
  {
    "normalForm": "llog",
    "id": 39623,
    "translations": [ "interest:2", "profit" ],
    "plural": [ "llogau" ],
    "gender": "m"
  },
  {
    "normalForm": "llystyfiant",
    "id": 39647,
    "translations": [ "vegetation" ],
    "plural": [ "llystyfiannau" ],
    "gender": "m"
  },
  {
    "normalForm": "lladmerydd",
    "id": 39685,
    "translations": [ "exponent" ],
    "plural": [ "lladmeryddion" ],
    "gender": "m"
  },
  {
    "normalForm": "llesâd",
    "id": 39734,
    "translations": [ "benefit" ],
    "plural": [ "llesadau" ],
    "gender": "mf"
  },
  {
    "normalForm": "llun",
    "id": 39738,
    "translations": [ "picture" ],
    "plural": [ "lluniau" ],
    "gender": "m"
  },
  {
    "normalForm": "llus",
    "id": 39739,
    "translations": [ "bilberry" ],
    "plural": [ "llus" ],
    "gender": "m"
  },
  {
    "normalForm": "lliant",
    "id": 39742,
    "translations": [ "flood" ],
    "isCountable": false,
    "gender": "m"
  },
  {
    "normalForm": "llwy",
    "id": 39758,
    "translations": [ "spoon" ],
    "plural": [ "llwyau" ],
    "gender": "f"
  },
  {
    "normalForm": "llwg",
    "id": 39772,
    "translations": [ "vision" ],
    "isCountable": false,
    "gender": "mf"
  },
  {
    "normalForm": "llonyddwch",
    "id": 39783,
    "translations": [ "rest" ],
    "isCountable": false,
    "gender": "m"
  },
  {
    "normalForm": "labordy",
    "id": 39790,
    "translations": [ "laboratory" ],
    "plural": [ "labordai" ],
    "gender": "m"
  },
  {
    "normalForm": "llyn",
    "id": 39808,
    "translations": [ "lake" ],
    "plural": [ "llynnoedd" ],
    "gender": "m"
  },
  {
    "normalForm": "llys",
    "id": 39809,
    "translations": [ "court" ],
    "plural": [ "llysoedd" ],
    "gender": "m"
  },
  {
    "normalForm": "llyw",
    "id": 39813,
    "translations": [ "helm" ],
    "plural": [ "llywiau", "llywau" ],
    "gender": "m"
  },
  {
    "normalForm": "llyd",
    "id": 39822,
    "translations": [ "passion" ],
    "isCountable": false,
    "gender": "m"
  },
  {
    "normalForm": "lemon",
    "id": 39840,
    "translations": [ "lemon" ],
    "plural": [ "lemonau" ],
    "gender": "m"
  },
  {
    "normalForm": "llaca",
    "id": 39849,
    "translations": [ "mud" ],
    "isCountable": false,
    "gender": "m"
  },
  {
    "normalForm": "larfa",
    "id": 39885,
    "translations": [ "larva" ],
    "plural": [ "larfâu" ],
    "gender": "m"
  },
  {
    "normalForm": "lliaws",
    "id": 39897,
    "translations": [ "host" ],
    "isCountable": false,
    "gender": "m"
  },
  {
    "normalForm": "llafn",
    "id": 39928,
    "translations": [ "aspect" ],
    "isCountable": false,
    "gender": "mf"
  },
  {
    "normalForm": "llyfrdra",
    "id": 39961,
    "translations": [ "cowardice" ],
    "isCountable": false,
    "gender": "m"
  },
  {
    "normalForm": "llaid",
    "id": 39973,
    "translations": [ "mud" ],
    "isCountable": false,
    "gender": "m"
  },
  {
    "normalForm": "llwythwr",
    "id": 39981,
    "translations": [ "tribesman" ],
    "plural": [ "llwythwyr" ],
    "gender": "m"
  },
  {
    "normalForm": "llyffant",
    "id": 39985,
    "translations": [ "toad" ],
    "isCountable": false,
    "gender": "m"
  },
  {
    "normalForm": "llosgaberth",
    "id": 40004,
    "translations": [ "to offer burnt sacrifice", "to burn incense as an act of worship" ],
    "isCountable": false,
    "gender": "m"
  },
  {
    "normalForm": "lemwn",
    "id": 40008,
    "translations": [ "lemon" ],
    "isCountable": false,
    "gender": "m"
  },
  {
    "normalForm": "llain",
    "id": 40020,
    "translations": [ "strip of land" ],
    "plural": [ "lleiniau", "lleinau" ],
    "gender": "mf"
  },
  {
    "normalForm": "llwydfron",
    "id": 40022,
    "translations": [ "whitethroat" ],
    "isCountable": false,
    "gender": "f"
  },
  {
    "normalForm": "llawfeddygaeth",
    "id": 40025,
    "translations": [ "surgery" ],
    "isCountable": false,
    "gender": "f"
  },
  {
    "normalForm": "llais",
    "id": 40027,
    "translations": [ "voice" ],
    "plural": [ "lleisiau" ],
    "gender": "m"
  },
  {
    "normalForm": "llwyfandir",
    "id": 40132,
    "translations": [ "plateau" ],
    "plural": [ "llwyfandiroedd" ],
    "gender": "m"
  },
  {
    "normalForm": "licris",
    "id": 40140,
    "translations": [ "liquorice" ],
    "isCountable": false,
    "gender": "m"
  },
  {
    "normalForm": "llanastr",
    "id": 40168,
    "translations": [ "mess" ],
    "isCountable": false,
    "gender": "mf"
  },
  {
    "normalForm": "llywion",
    "id": 40195,
    "translations": [ "refuse" ],
    "plural": [ "llofion" ],
    "gender": "m"
  },
  {
    "normalForm": "llesiant",
    "id": 40205,
    "translations": [ "advantage" ],
    "plural": [ "llesiannau", "llesannau" ],
    "gender": "m"
  },
  {
    "normalForm": "lembo",
    "id": 40247,
    "translations": [ "blockhead" ],
    "isCountable": false,
    "gender": "m"
  },
  {
    "normalForm": "llengarwr",
    "id": 40277,
    "translations": [ "lover of literature" ],
    "plural": [ "llengarwyr" ],
    "gender": "m"
  },
  {
    "normalForm": "llythrenw",
    "id": 40287,
    "translations": [ "acronym" ],
    "plural": [ "llythrenwau" ],
    "gender": "m"
  },
  {
    "normalForm": "llwythiad",
    "id": 40346,
    "isCountable": false,
    "gender": "m"
  },
  {
    "normalForm": "lluniaeth",
    "id": 40349,
    "translations": [ "provision" ],
    "plural": [ "lluniaethoedd" ],
    "gender": "mf"
  },
  {
    "normalForm": "lliain",
    "id": 40360,
    "translations": [ "linen" ],
    "plural": [ "llieiniau", "llieinau" ],
    "gender": "m"
  },
  {
    "normalForm": "llywiwr",
    "id": 40379,
    "translations": [ "navigator" ],
    "plural": [ "llywyr" ],
    "gender": "m"
  }
]
